%!PS-Adobe-3.0 EPSF-3.0 
%%BoundingBox: 0 0 454 255
%%Pages: 0
%%Creator: LibreOffice 4.4
%%Title: none
%%CreationDate: none
%%LanguageLevel: 2
%%EndComments
%%BeginProlog
%%BeginResource: procset SDRes-Prolog 1.0 0
/b4_inc_state save def
/dict_count countdictstack def
/op_count count 1 sub def
userdict begin
0 setgray 0 setlinecap 1 setlinewidth 0 setlinejoin 10 setmiterlimit[] 0 setdash newpath
/languagelevel where {pop languagelevel 1 ne {false setstrokeadjust false setoverprint} if} if
/bdef {bind def} bind def
/c {setrgbcolor} bdef
/l {neg lineto} bdef
/rl {neg rlineto} bdef
/lc {setlinecap} bdef
/lj {setlinejoin} bdef
/lw {setlinewidth} bdef
/ml {setmiterlimit} bdef
/ld {setdash} bdef
/m {neg moveto} bdef
/ct {6 2 roll neg 6 2 roll neg 6 2 roll neg curveto} bdef
/r {rotate} bdef
/t {neg translate} bdef
/s {scale} bdef
/sw {show} bdef
/gs {gsave} bdef
/gr {grestore} bdef
/f {findfont dup length dict begin
{1 index /FID ne {def} {pop pop} ifelse} forall /Encoding ISOLatin1Encoding def
currentdict end /NFont exch definefont pop /NFont findfont} bdef
/p {closepath} bdef
/sf {scalefont setfont} bdef
/ef {eofill}bdef
/pc {closepath stroke}bdef
/ps {stroke}bdef
/pum {matrix currentmatrix}bdef
/pom {setmatrix}bdef
/bs {/aString exch def /nXOfs exch def /nWidth exch def currentpoint nXOfs 0 rmoveto pum nWidth aString stringwidth pop div 1 scale aString show pom moveto} bdef
%%EndResource
%%EndProlog
%%BeginSetup
%%EndSetup
%%Page: 1 1
%%BeginPageSetup
%%EndPageSetup
pum
0.02837 0.02833 s 
0 -9000 t
/tm matrix currentmatrix def
tm setmatrix
1 -5361 t 
1 1 s 
1.000 1.000 1.000 c 8000 14192 m  0 14192 l  0 5193 l  15999 5193 l  15999 14192 l 
8000 14192 l  p ef
0 lw 1 lj 0.703 0.703 0.703 c 7729 12187 m  2149 12187 l  2149 5573 l  13308 5573 l 
13308 12187 l  7729 12187 l  pc
13308 12186 m  2149 12186 l  ps
13308 11451 m  2149 11451 l  ps
13308 10716 m  2149 10716 l  ps
13308 9981 m  2149 9981 l  ps
13308 9247 m  2149 9247 l  ps
13308 8512 m  2149 8512 l  ps
13308 7777 m  2149 7777 l  ps
13308 7042 m  2149 7042 l  ps
13308 6307 m  2149 6307 l  ps
13308 5572 m  2149 5572 l  ps
2149 12336 m  2149 12186 l  ps
2149 12336 m  2149 12186 l  ps
3743 12336 m  3743 12186 l  ps
3743 12336 m  3743 12186 l  ps
5337 12336 m  5337 12186 l  ps
5337 12336 m  5337 12186 l  ps
6931 12336 m  6931 12186 l  ps
6931 12336 m  6931 12186 l  ps
8525 12336 m  8525 12186 l  ps
8525 12336 m  8525 12186 l  ps
10119 12336 m  10119 12186 l  ps
10119 12336 m  10119 12186 l  ps
11713 12336 m  11713 12186 l  ps
11713 12336 m  11713 12186 l  ps
13308 12336 m  13308 12186 l  ps
13308 12336 m  13308 12186 l  ps
2149 12186 m  13308 12186 l  ps
1999 12186 m  2149 12186 l  ps
1999 12186 m  2149 12186 l  ps
1999 11451 m  2149 11451 l  ps
1999 11451 m  2149 11451 l  ps
1999 10716 m  2149 10716 l  ps
1999 10716 m  2149 10716 l  ps
1999 9981 m  2149 9981 l  ps
1999 9981 m  2149 9981 l  ps
1999 9247 m  2149 9247 l  ps
1999 9247 m  2149 9247 l  ps
1999 8512 m  2149 8512 l  ps
1999 8512 m  2149 8512 l  ps
1999 7776 m  2149 7776 l  ps
1999 7776 m  2149 7776 l  ps
1999 7042 m  2149 7042 l  ps
1999 7042 m  2149 7042 l  ps
1999 6307 m  2149 6307 l  ps
1999 6307 m  2149 6307 l  ps
1999 5572 m  2149 5572 l  ps
1999 5572 m  2149 5572 l  ps
2149 12186 m  2149 5572 l  ps
0.003 0.273 0.527 c 11979 12186 m  12510 12186 l  12510 6628 l  11979 6628 l 
11979 12186 l  p ef
10385 12186 m  10916 12186 l  10916 6823 l  10385 6823 l  10385 12186 l 
p ef
8790 12186 m  9322 12186 l  9322 6814 l  8790 6814 l  8790 12186 l  p ef
7197 12186 m  7729 12186 l  7729 7286 l  7197 7286 l  7197 12186 l  p ef
5603 12186 m  6134 12186 l  6134 6975 l  5603 6975 l  5603 12186 l  p ef
4009 12186 m  4540 12186 l  4540 7312 l  4009 7312 l  4009 12186 l  p ef
2414 12186 m  2946 12186 l  2946 7227 l  2414 7227 l  2414 12186 l  p ef
1.000 0.261 0.058 c 12510 12186 m  13042 12186 l  13042 6284 l  12510 6284 l 
12510 12186 l  p ef
10916 12186 m  11448 12186 l  11448 6362 l  10916 6362 l  10916 12186 l 
p ef
9322 12186 m  9853 12186 l  9853 6570 l  9322 6570 l  9322 12186 l  p ef
7729 12186 m  8259 12186 l  8259 6600 l  7729 6600 l  7729 12186 l  p ef
6134 12186 m  6666 12186 l  6666 7181 l  6134 7181 l  6134 12186 l  p ef
4540 12186 m  5071 12186 l  5071 7310 l  4540 7310 l  4540 12186 l  p ef
2946 12186 m  3477 12186 l  3477 9031 l  2946 9031 l  2946 12186 l  p ef
pum
2708 12754 t
0.003 0.003 0.003 c 142 -30 m  136 -18 128 -10 119 -5 ct 109 0 97 3 83 3 ct 60 3 43 -5 31 -21 ct 
20 -37 15 -61 15 -93 ct 15 -158 38 -190 83 -190 ct 98 -190 109 -187 119 -182 ct 
128 -177 136 -169 142 -158 ct 142 -158 l  142 -159 142 -161 142 -163 ct 142 -166 142 -168 142 -171 ct 
142 -174 142 -176 142 -179 ct 142 -181 142 -183 142 -184 ct 142 -256 l  173 -256 l 
173 -39 l  173 -34 173 -30 173 -26 ct 173 -22 173 -18 173 -14 ct 173 -11 173 -8 173 -5 ct 
173 -3 173 -1 174 0 ct 144 0 l  144 -1 143 -3 143 -5 ct 143 -7 143 -10 143 -12 ct 
143 -15 142 -18 142 -21 ct 142 -24 142 -27 142 -30 ct 142 -30 l  p
47 -94 m  47 -81 48 -70 50 -61 ct 51 -52 54 -44 58 -38 ct 61 -32 66 -28 71 -25 ct 
77 -22 83 -21 91 -21 ct 100 -21 107 -22 113 -25 ct 119 -28 124 -32 129 -38 ct 133 -44 136 -51 138 -61 ct 
140 -70 142 -82 142 -96 ct 142 -109 140 -120 138 -129 ct 136 -138 133 -146 129 -151 ct 
124 -157 119 -161 113 -163 ct 107 -166 100 -167 92 -167 ct 84 -167 78 -166 72 -163 ct 
67 -160 62 -156 58 -150 ct 55 -145 52 -137 50 -128 ct 48 -118 47 -107 47 -94 ct 
p ef
239 -187 m  239 -69 l  239 -60 240 -52 241 -46 ct 242 -40 245 -35 248 -31 ct 
251 -27 254 -25 259 -23 ct 264 -22 270 -21 278 -21 ct 285 -21 292 -22 297 -25 ct 
303 -27 308 -31 313 -36 ct 317 -41 320 -47 322 -54 ct 325 -61 326 -70 326 -79 ct 
326 -187 l  357 -187 l  357 -40 l  357 -36 357 -32 357 -28 ct 357 -24 357 -20 357 -16 ct 
357 -12 357 -9 358 -6 ct 358 -3 358 -1 358 0 ct 329 0 l  328 -1 328 -3 328 -5 ct 
328 -8 328 -11 328 -14 ct 328 -17 327 -20 327 -24 ct 327 -27 327 -30 327 -32 ct 
327 -32 l  324 -27 320 -22 317 -18 ct 313 -13 309 -10 304 -7 ct 300 -4 294 -1 288 1 ct 
282 2 275 3 267 3 ct 257 3 248 2 240 -1 ct 233 -3 227 -7 222 -13 ct 217 -18 214 -25 211 -33 ct 
209 -41 208 -51 208 -63 ct 208 -187 l  239 -187 l  p ef
394 0 m  394 -143 l  394 -147 394 -151 394 -155 ct 394 -159 394 -163 394 -167 ct 
394 -171 394 -174 394 -178 ct 394 -181 394 -184 393 -187 ct 423 -187 l  423 -184 423 -181 423 -178 ct 
423 -174 424 -171 424 -167 ct 424 -164 424 -160 424 -157 ct 424 -154 424 -151 424 -148 ct 
425 -148 l  427 -156 429 -162 432 -167 ct 434 -172 437 -177 441 -180 ct 444 -183 448 -186 452 -188 ct 
457 -189 463 -190 469 -190 ct 472 -190 474 -190 476 -189 ct 479 -189 480 -189 482 -188 ct 
482 -160 l  480 -160 477 -161 474 -161 ct 472 -161 469 -162 465 -162 ct 458 -162 452 -160 447 -157 ct 
442 -154 438 -149 435 -143 ct 432 -138 429 -131 428 -123 ct 426 -115 426 -107 426 -97 ct 
426 0 l  394 0 l  p ef
pom
pum
4355 12754 t
24 0 m  24 -256 l  55 -256 l  55 0 l  24 0 l  p ef
141 -164 m  141 -1 l  110 -1 l  110 -164 l  84 -164 l  84 -187 l  110 -187 l 
110 -208 l  110 -215 111 -221 112 -227 ct 113 -233 116 -238 119 -242 ct 122 -246 127 -250 133 -252 ct 
139 -255 146 -256 156 -256 ct 159 -256 163 -256 167 -255 ct 171 -255 175 -255 178 -254 ct 
178 -230 l  176 -231 173 -231 171 -231 ct 168 -232 166 -232 164 -232 ct 159 -232 155 -231 153 -230 ct 
150 -229 147 -227 146 -224 ct 144 -222 143 -219 142 -216 ct 142 -212 141 -208 141 -204 ct 
141 -187 l  178 -187 l  178 -164 l  141 -164 l  p ef
368 -122 m  368 -99 365 -79 361 -63 ct 356 -47 350 -34 343 -25 ct 335 -15 326 -8 316 -3 ct 
305 1 294 3 283 3 ct 271 3 260 1 250 -3 ct 239 -8 231 -15 223 -24 ct 215 -34 210 -47 205 -63 ct 
201 -79 199 -99 199 -122 ct 199 -146 201 -167 205 -183 ct 210 -199 216 -212 223 -221 ct 
231 -231 240 -237 250 -241 ct 260 -245 272 -247 284 -247 ct 295 -247 306 -245 316 -241 ct 
327 -237 335 -231 343 -221 ct 351 -212 357 -199 361 -183 ct 365 -167 368 -146 368 -122 ct 
p
336 -122 m  336 -141 335 -157 333 -170 ct 330 -183 327 -193 322 -201 ct 318 -209 312 -214 306 -217 ct 
299 -220 292 -222 284 -222 ct 275 -222 267 -220 261 -217 ct 254 -214 248 -208 244 -201 ct 
239 -193 236 -183 234 -170 ct 231 -157 230 -141 230 -122 ct 230 -103 231 -88 234 -75 ct 
236 -62 239 -52 244 -44 ct 249 -36 254 -31 261 -27 ct 267 -24 275 -22 283 -22 ct 
291 -22 299 -24 305 -27 ct 312 -31 317 -36 322 -44 ct 326 -52 330 -62 332 -75 ct 
335 -88 336 -103 336 -122 ct p ef
pom
pum
5618 12754 t
24 0 m  24 -256 l  55 -256 l  55 0 l  24 0 l  p ef
141 -164 m  141 -1 l  110 -1 l  110 -164 l  84 -164 l  84 -187 l  110 -187 l 
110 -208 l  110 -215 111 -221 112 -227 ct 113 -233 116 -238 119 -242 ct 122 -246 127 -250 133 -252 ct 
139 -255 146 -256 156 -256 ct 159 -256 163 -256 167 -255 ct 171 -255 175 -255 178 -254 ct 
178 -230 l  176 -231 173 -231 171 -231 ct 168 -232 166 -232 164 -232 ct 159 -232 155 -231 153 -230 ct 
150 -229 147 -227 146 -224 ct 144 -222 143 -219 142 -216 ct 142 -212 141 -208 141 -204 ct 
141 -187 l  178 -187 l  178 -164 l  141 -164 l  p ef
368 -122 m  368 -99 365 -79 361 -63 ct 356 -47 350 -34 343 -25 ct 335 -15 326 -8 316 -3 ct 
305 1 294 3 283 3 ct 271 3 260 1 250 -3 ct 239 -8 231 -15 223 -24 ct 215 -34 210 -47 205 -63 ct 
201 -79 199 -99 199 -122 ct 199 -146 201 -167 205 -183 ct 210 -199 216 -212 223 -221 ct 
231 -231 240 -237 250 -241 ct 260 -245 272 -247 284 -247 ct 295 -247 306 -245 316 -241 ct 
327 -237 335 -231 343 -221 ct 351 -212 357 -199 361 -183 ct 365 -167 368 -146 368 -122 ct 
p
336 -122 m  336 -141 335 -157 333 -170 ct 330 -183 327 -193 322 -201 ct 318 -209 312 -214 306 -217 ct 
299 -220 292 -222 284 -222 ct 275 -222 267 -220 261 -217 ct 254 -214 248 -208 244 -201 ct 
239 -193 236 -183 234 -170 ct 231 -157 230 -141 230 -122 ct 230 -103 231 -88 234 -75 ct 
236 -62 239 -52 244 -44 ct 249 -36 254 -31 261 -27 ct 267 -24 275 -22 283 -22 ct 
291 -22 299 -24 305 -27 ct 312 -31 317 -36 322 -44 ct 326 -52 330 -62 332 -75 ct 
335 -88 336 -103 336 -122 ct p ef
365 70 m  365 48 l  570 48 l  570 70 l  365 70 l  p ef
698 -30 m  692 -18 684 -10 675 -5 ct 665 0 653 3 639 3 ct 616 3 599 -5 587 -21 ct 
576 -37 571 -61 571 -93 ct 571 -158 594 -190 639 -190 ct 654 -190 665 -187 675 -182 ct 
684 -177 692 -169 698 -158 ct 698 -158 l  698 -159 698 -161 698 -163 ct 698 -166 698 -168 698 -171 ct 
698 -174 698 -176 698 -179 ct 698 -181 698 -183 698 -184 ct 698 -256 l  729 -256 l 
729 -39 l  729 -34 729 -30 729 -26 ct 729 -22 729 -18 729 -14 ct 729 -11 729 -8 729 -5 ct 
729 -3 729 -1 730 0 ct 700 0 l  700 -1 699 -3 699 -5 ct 699 -7 699 -10 699 -12 ct 
699 -15 698 -18 698 -21 ct 698 -24 698 -27 698 -30 ct 698 -30 l  p
603 -94 m  603 -81 604 -70 606 -61 ct 607 -52 610 -44 614 -38 ct 617 -32 622 -28 627 -25 ct 
633 -22 639 -21 647 -21 ct 656 -21 663 -22 669 -25 ct 675 -28 680 -32 685 -38 ct 
689 -44 692 -51 694 -61 ct 696 -70 698 -82 698 -96 ct 698 -109 696 -120 694 -129 ct 
692 -138 689 -146 685 -151 ct 680 -157 675 -161 669 -163 ct 663 -166 656 -167 648 -167 ct 
640 -167 634 -166 628 -163 ct 623 -160 618 -156 614 -150 ct 611 -145 608 -137 606 -128 ct 
604 -118 603 -107 603 -94 ct p ef
795 -187 m  795 -69 l  795 -60 796 -52 797 -46 ct 798 -40 801 -35 804 -31 ct 
807 -27 810 -25 815 -23 ct 820 -22 826 -21 834 -21 ct 841 -21 848 -22 853 -25 ct 
859 -27 864 -31 869 -36 ct 873 -41 876 -47 878 -54 ct 881 -61 882 -70 882 -79 ct 
882 -187 l  913 -187 l  913 -40 l  913 -36 913 -32 913 -28 ct 913 -24 913 -20 913 -16 ct 
913 -12 913 -9 914 -6 ct 914 -3 914 -1 914 0 ct 885 0 l  884 -1 884 -3 884 -5 ct 
884 -8 884 -11 884 -14 ct 884 -17 883 -20 883 -24 ct 883 -27 883 -30 883 -32 ct 
883 -32 l  880 -27 876 -22 873 -18 ct 869 -13 865 -10 860 -7 ct 856 -4 850 -1 844 1 ct 
838 2 831 3 823 3 ct 813 3 804 2 796 -1 ct 789 -3 783 -7 778 -13 ct 773 -18 770 -25 767 -33 ct 
765 -41 764 -51 764 -63 ct 764 -187 l  795 -187 l  p ef
950 0 m  950 -143 l  950 -147 950 -151 950 -155 ct 950 -159 950 -163 950 -167 ct 
950 -171 950 -174 950 -178 ct 950 -181 950 -184 949 -187 ct 979 -187 l  979 -184 979 -181 979 -178 ct 
979 -174 980 -171 980 -167 ct 980 -164 980 -160 980 -157 ct 980 -154 980 -151 980 -148 ct 
981 -148 l  983 -156 985 -162 988 -167 ct 990 -172 993 -177 997 -180 ct 1000 -183 1004 -186 1008 -188 ct 
1013 -189 1019 -190 1025 -190 ct 1028 -190 1030 -190 1032 -189 ct 1035 -189 1036 -189 1038 -188 ct 
1038 -160 l  1036 -160 1033 -161 1030 -161 ct 1028 -161 1025 -162 1021 -162 ct 
1014 -162 1008 -160 1003 -157 ct 998 -154 994 -149 991 -143 ct 988 -138 985 -131 984 -123 ct 
982 -115 982 -107 982 -97 ct 982 0 l  950 0 l  p ef
pom
pum
7398 12754 t
132 0 m  132 -118 l  132 -127 132 -135 131 -141 ct 130 -147 128 -152 125 -156 ct 
122 -160 119 -162 114 -164 ct 110 -165 105 -166 98 -166 ct 92 -166 86 -165 80 -162 ct 
75 -160 71 -156 67 -151 ct 63 -146 60 -140 58 -133 ct 56 -126 55 -117 55 -108 ct 
55 0 l  24 0 l  24 -147 l  24 -151 24 -155 24 -159 ct 24 -163 24 -167 24 -171 ct 
24 -175 24 -178 24 -181 ct 24 -184 24 -186 23 -187 ct 53 -187 l  53 -186 53 -184 53 -182 ct 
53 -179 53 -176 54 -173 ct 54 -170 54 -167 54 -163 ct 54 -160 54 -157 54 -155 ct 
55 -155 l  57 -160 60 -165 64 -169 ct 67 -174 71 -177 75 -180 ct 79 -183 84 -186 90 -188 ct 
95 -189 102 -190 109 -190 ct 123 -190 134 -187 143 -182 ct 151 -176 157 -167 160 -155 ct 
160 -155 l  163 -160 166 -165 170 -169 ct 173 -174 177 -177 182 -180 ct 186 -183 191 -186 197 -188 ct 
203 -189 209 -190 217 -190 ct 226 -190 234 -189 241 -186 ct 248 -184 254 -180 258 -174 ct 
262 -169 266 -162 268 -154 ct 270 -146 271 -136 271 -124 ct 271 0 l  240 0 l 
240 -118 l  240 -127 240 -135 238 -141 ct 237 -147 235 -152 233 -156 ct 230 -160 226 -162 222 -164 ct 
218 -165 212 -166 206 -166 ct 199 -166 194 -165 188 -162 ct 183 -160 178 -156 175 -151 ct 
171 -147 168 -141 166 -133 ct 164 -126 163 -118 163 -108 ct 163 0 l  132 0 l 
p ef
385 73 m  375 73 365 72 357 70 ct 349 68 342 64 336 60 ct 330 56 325 51 322 46 ct 
318 40 315 34 314 27 ct 345 22 l  347 31 351 38 358 42 ct 366 47 375 49 386 49 ct 
393 49 400 48 405 46 ct 411 44 416 41 420 37 ct 424 33 427 27 429 20 ct 432 13 433 5 433 -5 ct 
433 -35 l  432 -35 l  430 -30 427 -26 424 -22 ct 420 -17 416 -13 411 -10 ct 
407 -7 401 -4 394 -2 ct 388 0 381 1 372 1 ct 361 1 350 -1 342 -5 ct 333 -9 327 -15 321 -23 ct 
316 -31 312 -41 310 -52 ct 307 -64 306 -78 306 -93 ct 306 -108 307 -122 310 -134 ct 
312 -146 316 -156 322 -164 ct 327 -173 334 -179 343 -183 ct 352 -188 363 -190 376 -190 ct 
389 -190 400 -187 410 -181 ct 420 -175 427 -166 433 -155 ct 433 -155 l  433 -158 433 -161 433 -165 ct 
433 -168 434 -172 434 -175 ct 434 -178 434 -181 434 -183 ct 435 -185 435 -187 435 -187 ct 
465 -187 l  464 -186 464 -184 464 -182 ct 464 -179 464 -176 464 -173 ct 464 -169 464 -166 464 -161 ct 
464 -157 464 -153 464 -148 ct 464 -6 l  464 20 457 40 444 53 ct 432 66 412 73 385 73 ct 
p
433 -94 m  433 -107 431 -118 428 -127 ct 426 -136 422 -144 417 -150 ct 413 -156 407 -160 402 -163 ct 
396 -166 390 -167 383 -167 ct 375 -167 369 -166 363 -163 ct 357 -160 353 -156 349 -150 ct 
345 -144 342 -136 341 -127 ct 339 -118 338 -107 338 -94 ct 338 -80 339 -69 341 -60 ct 
342 -51 345 -43 349 -38 ct 352 -32 357 -28 363 -26 ct 368 -23 375 -22 383 -22 ct 
389 -22 395 -23 401 -26 ct 407 -29 412 -33 417 -38 ct 422 -44 426 -52 428 -61 ct 
431 -70 433 -81 433 -94 ct p ef
523 -95 m  523 -84 524 -74 526 -65 ct 527 -56 530 -48 534 -42 ct 537 -35 542 -30 548 -27 ct 
554 -23 562 -21 570 -21 ct 581 -21 591 -24 598 -30 ct 606 -36 610 -45 612 -57 ct 
643 -57 l  642 -49 640 -42 636 -34 ct 633 -27 628 -21 622 -15 ct 617 -10 609 -5 601 -2 ct 
592 1 582 3 571 3 ct 557 3 544 1 534 -4 ct 524 -9 516 -16 509 -25 ct 503 -34 498 -44 495 -56 ct 
492 -67 491 -80 491 -94 ct 491 -106 492 -117 494 -127 ct 496 -137 499 -145 503 -152 ct 
507 -159 511 -165 516 -170 ct 521 -175 527 -179 532 -182 ct 538 -185 545 -187 551 -188 ct 
558 -190 564 -190 571 -190 ct 581 -190 591 -189 599 -186 ct 607 -183 614 -179 620 -174 ct 
626 -169 631 -163 634 -157 ct 638 -150 641 -142 642 -135 ct 610 -132 l  609 -143 605 -151 598 -157 ct 
591 -163 582 -166 570 -166 ct 561 -166 554 -165 548 -162 ct 542 -159 537 -154 534 -148 ct 
530 -142 527 -135 526 -126 ct 524 -117 523 -107 523 -95 ct p ef
pom
pum
8661 12754 t
132 0 m  132 -118 l  132 -127 132 -135 131 -141 ct 130 -147 128 -152 125 -156 ct 
122 -160 119 -162 114 -164 ct 110 -165 105 -166 98 -166 ct 92 -166 86 -165 80 -162 ct 
75 -160 71 -156 67 -151 ct 63 -146 60 -140 58 -133 ct 56 -126 55 -117 55 -108 ct 
55 0 l  24 0 l  24 -147 l  24 -151 24 -155 24 -159 ct 24 -163 24 -167 24 -171 ct 
24 -175 24 -178 24 -181 ct 24 -184 24 -186 23 -187 ct 53 -187 l  53 -186 53 -184 53 -182 ct 
53 -179 53 -176 54 -173 ct 54 -170 54 -167 54 -163 ct 54 -160 54 -157 54 -155 ct 
55 -155 l  57 -160 60 -165 64 -169 ct 67 -174 71 -177 75 -180 ct 79 -183 84 -186 90 -188 ct 
95 -189 102 -190 109 -190 ct 123 -190 134 -187 143 -182 ct 151 -176 157 -167 160 -155 ct 
160 -155 l  163 -160 166 -165 170 -169 ct 173 -174 177 -177 182 -180 ct 186 -183 191 -186 197 -188 ct 
203 -189 209 -190 217 -190 ct 226 -190 234 -189 241 -186 ct 248 -184 254 -180 258 -174 ct 
262 -169 266 -162 268 -154 ct 270 -146 271 -136 271 -124 ct 271 0 l  240 0 l 
240 -118 l  240 -127 240 -135 238 -141 ct 237 -147 235 -152 233 -156 ct 230 -160 226 -162 222 -164 ct 
218 -165 212 -166 206 -166 ct 199 -166 194 -165 188 -162 ct 183 -160 178 -156 175 -151 ct 
171 -147 168 -141 166 -133 ct 164 -126 163 -118 163 -108 ct 163 0 l  132 0 l 
p ef
385 73 m  375 73 365 72 357 70 ct 349 68 342 64 336 60 ct 330 56 325 51 322 46 ct 
318 40 315 34 314 27 ct 345 22 l  347 31 351 38 358 42 ct 366 47 375 49 386 49 ct 
393 49 400 48 405 46 ct 411 44 416 41 420 37 ct 424 33 427 27 429 20 ct 432 13 433 5 433 -5 ct 
433 -35 l  432 -35 l  430 -30 427 -26 424 -22 ct 420 -17 416 -13 411 -10 ct 
407 -7 401 -4 394 -2 ct 388 0 381 1 372 1 ct 361 1 350 -1 342 -5 ct 333 -9 327 -15 321 -23 ct 
316 -31 312 -41 310 -52 ct 307 -64 306 -78 306 -93 ct 306 -108 307 -122 310 -134 ct 
312 -146 316 -156 322 -164 ct 327 -173 334 -179 343 -183 ct 352 -188 363 -190 376 -190 ct 
389 -190 400 -187 410 -181 ct 420 -175 427 -166 433 -155 ct 433 -155 l  433 -158 433 -161 433 -165 ct 
433 -168 434 -172 434 -175 ct 434 -178 434 -181 434 -183 ct 435 -185 435 -187 435 -187 ct 
465 -187 l  464 -186 464 -184 464 -182 ct 464 -179 464 -176 464 -173 ct 464 -169 464 -166 464 -161 ct 
464 -157 464 -153 464 -148 ct 464 -6 l  464 20 457 40 444 53 ct 432 66 412 73 385 73 ct 
p
433 -94 m  433 -107 431 -118 428 -127 ct 426 -136 422 -144 417 -150 ct 413 -156 407 -160 402 -163 ct 
396 -166 390 -167 383 -167 ct 375 -167 369 -166 363 -163 ct 357 -160 353 -156 349 -150 ct 
345 -144 342 -136 341 -127 ct 339 -118 338 -107 338 -94 ct 338 -80 339 -69 341 -60 ct 
342 -51 345 -43 349 -38 ct 352 -32 357 -28 363 -26 ct 368 -23 375 -22 383 -22 ct 
389 -22 395 -23 401 -26 ct 407 -29 412 -33 417 -38 ct 422 -44 426 -52 428 -61 ct 
431 -70 433 -81 433 -94 ct p ef
523 -95 m  523 -84 524 -74 526 -65 ct 527 -56 530 -48 534 -42 ct 537 -35 542 -30 548 -27 ct 
554 -23 562 -21 570 -21 ct 581 -21 591 -24 598 -30 ct 606 -36 610 -45 612 -57 ct 
643 -57 l  642 -49 640 -42 636 -34 ct 633 -27 628 -21 622 -15 ct 617 -10 609 -5 601 -2 ct 
592 1 582 3 571 3 ct 557 3 544 1 534 -4 ct 524 -9 516 -16 509 -25 ct 503 -34 498 -44 495 -56 ct 
492 -67 491 -80 491 -94 ct 491 -106 492 -117 494 -127 ct 496 -137 499 -145 503 -152 ct 
507 -159 511 -165 516 -170 ct 521 -175 527 -179 532 -182 ct 538 -185 545 -187 551 -188 ct 
558 -190 564 -190 571 -190 ct 581 -190 591 -189 599 -186 ct 607 -183 614 -179 620 -174 ct 
626 -169 631 -163 634 -157 ct 638 -150 641 -142 642 -135 ct 610 -132 l  609 -143 605 -151 598 -157 ct 
591 -163 582 -166 570 -166 ct 561 -166 554 -165 548 -162 ct 542 -159 537 -154 534 -148 ct 
530 -142 527 -135 526 -126 ct 524 -117 523 -107 523 -95 ct p ef
656 70 m  656 48 l  861 48 l  861 70 l  656 70 l  p ef
989 -30 m  983 -18 975 -10 966 -5 ct 956 0 944 3 930 3 ct 907 3 890 -5 878 -21 ct 
867 -37 862 -61 862 -93 ct 862 -158 885 -190 930 -190 ct 945 -190 956 -187 966 -182 ct 
975 -177 983 -169 989 -158 ct 989 -158 l  989 -159 989 -161 989 -163 ct 989 -166 989 -168 989 -171 ct 
989 -174 989 -176 989 -179 ct 989 -181 989 -183 989 -184 ct 989 -256 l  1020 -256 l 
1020 -39 l  1020 -34 1020 -30 1020 -26 ct 1020 -22 1020 -18 1020 -14 ct 1020 -11 1020 -8 1020 -5 ct 
1020 -3 1020 -1 1021 0 ct 991 0 l  991 -1 990 -3 990 -5 ct 990 -7 990 -10 990 -12 ct 
990 -15 989 -18 989 -21 ct 989 -24 989 -27 989 -30 ct 989 -30 l  p
894 -94 m  894 -81 895 -70 897 -61 ct 898 -52 901 -44 905 -38 ct 908 -32 913 -28 918 -25 ct 
924 -22 930 -21 938 -21 ct 947 -21 954 -22 960 -25 ct 966 -28 971 -32 976 -38 ct 
980 -44 983 -51 985 -61 ct 987 -70 989 -82 989 -96 ct 989 -109 987 -120 985 -129 ct 
983 -138 980 -146 976 -151 ct 971 -157 966 -161 960 -163 ct 954 -166 947 -167 939 -167 ct 
931 -167 925 -166 919 -163 ct 914 -160 909 -156 905 -150 ct 902 -145 899 -137 897 -128 ct 
895 -118 894 -107 894 -94 ct p ef
1086 -187 m  1086 -69 l  1086 -60 1087 -52 1088 -46 ct 1089 -40 1092 -35 1095 -31 ct 
1098 -27 1101 -25 1106 -23 ct 1111 -22 1117 -21 1125 -21 ct 1132 -21 1139 -22 1144 -25 ct 
1150 -27 1155 -31 1160 -36 ct 1164 -41 1167 -47 1169 -54 ct 1172 -61 1173 -70 1173 -79 ct 
1173 -187 l  1204 -187 l  1204 -40 l  1204 -36 1204 -32 1204 -28 ct 1204 -24 1204 -20 1204 -16 ct 
1204 -12 1204 -9 1205 -6 ct 1205 -3 1205 -1 1205 0 ct 1176 0 l  1175 -1 1175 -3 1175 -5 ct 
1175 -8 1175 -11 1175 -14 ct 1175 -17 1174 -20 1174 -24 ct 1174 -27 1174 -30 1174 -32 ct 
1174 -32 l  1171 -27 1167 -22 1164 -18 ct 1160 -13 1156 -10 1151 -7 ct 1147 -4 1141 -1 1135 1 ct 
1129 2 1122 3 1114 3 ct 1104 3 1095 2 1087 -1 ct 1080 -3 1074 -7 1069 -13 ct 1064 -18 1061 -25 1058 -33 ct 
1056 -41 1055 -51 1055 -63 ct 1055 -187 l  1086 -187 l  p ef
1241 0 m  1241 -143 l  1241 -147 1241 -151 1241 -155 ct 1241 -159 1241 -163 1241 -167 ct 
1241 -171 1241 -174 1241 -178 ct 1241 -181 1241 -184 1240 -187 ct 1270 -187 l 
1270 -184 1270 -181 1270 -178 ct 1270 -174 1271 -171 1271 -167 ct 1271 -164 1271 -160 1271 -157 ct 
1271 -154 1271 -151 1271 -148 ct 1272 -148 l  1274 -156 1276 -162 1279 -167 ct 
1281 -172 1284 -177 1288 -180 ct 1291 -183 1295 -186 1299 -188 ct 1304 -189 1310 -190 1316 -190 ct 
1319 -190 1321 -190 1323 -189 ct 1326 -189 1327 -189 1329 -188 ct 1329 -160 l 
1327 -160 1324 -161 1321 -161 ct 1319 -161 1316 -162 1312 -162 ct 1305 -162 1299 -160 1294 -157 ct 
1289 -154 1285 -149 1282 -143 ct 1279 -138 1276 -131 1275 -123 ct 1273 -115 1273 -107 1273 -97 ct 
1273 0 l  1241 0 l  p ef
pom
pum
10308 12754 t
132 0 m  132 -118 l  132 -127 132 -135 131 -141 ct 130 -147 128 -152 125 -156 ct 
122 -160 119 -162 114 -164 ct 110 -165 105 -166 98 -166 ct 92 -166 86 -165 80 -162 ct 
75 -160 71 -156 67 -151 ct 63 -146 60 -140 58 -133 ct 56 -126 55 -117 55 -108 ct 
55 0 l  24 0 l  24 -147 l  24 -151 24 -155 24 -159 ct 24 -163 24 -167 24 -171 ct 
24 -175 24 -178 24 -181 ct 24 -184 24 -186 23 -187 ct 53 -187 l  53 -186 53 -184 53 -182 ct 
53 -179 53 -176 54 -173 ct 54 -170 54 -167 54 -163 ct 54 -160 54 -157 54 -155 ct 
55 -155 l  57 -160 60 -165 64 -169 ct 67 -174 71 -177 75 -180 ct 79 -183 84 -186 90 -188 ct 
95 -189 102 -190 109 -190 ct 123 -190 134 -187 143 -182 ct 151 -176 157 -167 160 -155 ct 
160 -155 l  163 -160 166 -165 170 -169 ct 173 -174 177 -177 182 -180 ct 186 -183 191 -186 197 -188 ct 
203 -189 209 -190 217 -190 ct 226 -190 234 -189 241 -186 ct 248 -184 254 -180 258 -174 ct 
262 -169 266 -162 268 -154 ct 270 -146 271 -136 271 -124 ct 271 0 l  240 0 l 
240 -118 l  240 -127 240 -135 238 -141 ct 237 -147 235 -152 233 -156 ct 230 -160 226 -162 222 -164 ct 
218 -165 212 -166 206 -166 ct 199 -166 194 -165 188 -162 ct 183 -160 178 -156 175 -151 ct 
171 -147 168 -141 166 -133 ct 164 -126 163 -118 163 -108 ct 163 0 l  132 0 l 
p ef
385 73 m  375 73 365 72 357 70 ct 349 68 342 64 336 60 ct 330 56 325 51 322 46 ct 
318 40 315 34 314 27 ct 345 22 l  347 31 351 38 358 42 ct 366 47 375 49 386 49 ct 
393 49 400 48 405 46 ct 411 44 416 41 420 37 ct 424 33 427 27 429 20 ct 432 13 433 5 433 -5 ct 
433 -35 l  432 -35 l  430 -30 427 -26 424 -22 ct 420 -17 416 -13 411 -10 ct 
407 -7 401 -4 394 -2 ct 388 0 381 1 372 1 ct 361 1 350 -1 342 -5 ct 333 -9 327 -15 321 -23 ct 
316 -31 312 -41 310 -52 ct 307 -64 306 -78 306 -93 ct 306 -108 307 -122 310 -134 ct 
312 -146 316 -156 322 -164 ct 327 -173 334 -179 343 -183 ct 352 -188 363 -190 376 -190 ct 
389 -190 400 -187 410 -181 ct 420 -175 427 -166 433 -155 ct 433 -155 l  433 -158 433 -161 433 -165 ct 
433 -168 434 -172 434 -175 ct 434 -178 434 -181 434 -183 ct 435 -185 435 -187 435 -187 ct 
465 -187 l  464 -186 464 -184 464 -182 ct 464 -179 464 -176 464 -173 ct 464 -169 464 -166 464 -161 ct 
464 -157 464 -153 464 -148 ct 464 -6 l  464 20 457 40 444 53 ct 432 66 412 73 385 73 ct 
p
433 -94 m  433 -107 431 -118 428 -127 ct 426 -136 422 -144 417 -150 ct 413 -156 407 -160 402 -163 ct 
396 -166 390 -167 383 -167 ct 375 -167 369 -166 363 -163 ct 357 -160 353 -156 349 -150 ct 
345 -144 342 -136 341 -127 ct 339 -118 338 -107 338 -94 ct 338 -80 339 -69 341 -60 ct 
342 -51 345 -43 349 -38 ct 352 -32 357 -28 363 -26 ct 368 -23 375 -22 383 -22 ct 
389 -22 395 -23 401 -26 ct 407 -29 412 -33 417 -38 ct 422 -44 426 -52 428 -61 ct 
431 -70 433 -81 433 -94 ct p ef
523 -95 m  523 -84 524 -74 526 -65 ct 527 -56 530 -48 534 -42 ct 537 -35 542 -30 548 -27 ct 
554 -23 562 -21 570 -21 ct 581 -21 591 -24 598 -30 ct 606 -36 610 -45 612 -57 ct 
643 -57 l  642 -49 640 -42 636 -34 ct 633 -27 628 -21 622 -15 ct 617 -10 609 -5 601 -2 ct 
592 1 582 3 571 3 ct 557 3 544 1 534 -4 ct 524 -9 516 -16 509 -25 ct 503 -34 498 -44 495 -56 ct 
492 -67 491 -80 491 -94 ct 491 -106 492 -117 494 -127 ct 496 -137 499 -145 503 -152 ct 
507 -159 511 -165 516 -170 ct 521 -175 527 -179 532 -182 ct 538 -185 545 -187 551 -188 ct 
558 -190 564 -190 571 -190 ct 581 -190 591 -189 599 -186 ct 607 -183 614 -179 620 -174 ct 
626 -169 631 -163 634 -157 ct 638 -150 641 -142 642 -135 ct 610 -132 l  609 -143 605 -151 598 -157 ct 
591 -163 582 -166 570 -166 ct 561 -166 554 -165 548 -162 ct 542 -159 537 -154 534 -148 ct 
530 -142 527 -135 526 -126 ct 524 -117 523 -107 523 -95 ct p ef
656 70 m  656 48 l  861 48 l  861 70 l  656 70 l  p ef
871 0 m  871 -256 l  902 -256 l  902 0 l  871 0 l  p ef
988 -164 m  988 -1 l  957 -1 l  957 -164 l  931 -164 l  931 -187 l  957 -187 l 
957 -208 l  957 -215 958 -221 959 -227 ct 960 -233 963 -238 966 -242 ct 969 -246 974 -250 980 -252 ct 
986 -255 993 -256 1003 -256 ct 1006 -256 1010 -256 1014 -255 ct 1018 -255 1022 -255 1025 -254 ct 
1025 -230 l  1023 -231 1020 -231 1018 -231 ct 1015 -232 1013 -232 1011 -232 ct 
1006 -232 1002 -231 1000 -230 ct 997 -229 994 -227 993 -224 ct 991 -222 990 -219 989 -216 ct 
989 -212 988 -208 988 -204 ct 988 -187 l  1025 -187 l  1025 -164 l  988 -164 l 
p ef
1215 -122 m  1215 -99 1212 -79 1208 -63 ct 1203 -47 1197 -34 1190 -25 ct 1182 -15 1173 -8 1163 -3 ct 
1152 1 1141 3 1130 3 ct 1118 3 1107 1 1097 -3 ct 1086 -8 1078 -15 1070 -24 ct 1062 -34 1057 -47 1052 -63 ct 
1048 -79 1046 -99 1046 -122 ct 1046 -146 1048 -167 1052 -183 ct 1057 -199 1063 -212 1070 -221 ct 
1078 -231 1087 -237 1097 -241 ct 1107 -245 1119 -247 1131 -247 ct 1142 -247 1153 -245 1163 -241 ct 
1174 -237 1182 -231 1190 -221 ct 1198 -212 1204 -199 1208 -183 ct 1212 -167 1215 -146 1215 -122 ct 
p
1183 -122 m  1183 -141 1182 -157 1180 -170 ct 1177 -183 1174 -193 1169 -201 ct 
1165 -209 1159 -214 1153 -217 ct 1146 -220 1139 -222 1131 -222 ct 1122 -222 1114 -220 1108 -217 ct 
1101 -214 1095 -208 1091 -201 ct 1086 -193 1083 -183 1081 -170 ct 1078 -157 1077 -141 1077 -122 ct 
1077 -103 1078 -88 1081 -75 ct 1083 -62 1086 -52 1091 -44 ct 1096 -36 1101 -31 1108 -27 ct 
1114 -24 1122 -22 1130 -22 ct 1138 -22 1146 -24 1152 -27 ct 1159 -31 1164 -36 1169 -44 ct 
1173 -52 1177 -62 1179 -75 ct 1182 -88 1183 -103 1183 -122 ct p ef
pom
pum
11571 12754 t
132 0 m  132 -118 l  132 -127 132 -135 131 -141 ct 130 -147 128 -152 125 -156 ct 
122 -160 119 -162 114 -164 ct 110 -165 105 -166 98 -166 ct 92 -166 86 -165 80 -162 ct 
75 -160 71 -156 67 -151 ct 63 -146 60 -140 58 -133 ct 56 -126 55 -117 55 -108 ct 
55 0 l  24 0 l  24 -147 l  24 -151 24 -155 24 -159 ct 24 -163 24 -167 24 -171 ct 
24 -175 24 -178 24 -181 ct 24 -184 24 -186 23 -187 ct 53 -187 l  53 -186 53 -184 53 -182 ct 
53 -179 53 -176 54 -173 ct 54 -170 54 -167 54 -163 ct 54 -160 54 -157 54 -155 ct 
55 -155 l  57 -160 60 -165 64 -169 ct 67 -174 71 -177 75 -180 ct 79 -183 84 -186 90 -188 ct 
95 -189 102 -190 109 -190 ct 123 -190 134 -187 143 -182 ct 151 -176 157 -167 160 -155 ct 
160 -155 l  163 -160 166 -165 170 -169 ct 173 -174 177 -177 182 -180 ct 186 -183 191 -186 197 -188 ct 
203 -189 209 -190 217 -190 ct 226 -190 234 -189 241 -186 ct 248 -184 254 -180 258 -174 ct 
262 -169 266 -162 268 -154 ct 270 -146 271 -136 271 -124 ct 271 0 l  240 0 l 
240 -118 l  240 -127 240 -135 238 -141 ct 237 -147 235 -152 233 -156 ct 230 -160 226 -162 222 -164 ct 
218 -165 212 -166 206 -166 ct 199 -166 194 -165 188 -162 ct 183 -160 178 -156 175 -151 ct 
171 -147 168 -141 166 -133 ct 164 -126 163 -118 163 -108 ct 163 0 l  132 0 l 
p ef
385 73 m  375 73 365 72 357 70 ct 349 68 342 64 336 60 ct 330 56 325 51 322 46 ct 
318 40 315 34 314 27 ct 345 22 l  347 31 351 38 358 42 ct 366 47 375 49 386 49 ct 
393 49 400 48 405 46 ct 411 44 416 41 420 37 ct 424 33 427 27 429 20 ct 432 13 433 5 433 -5 ct 
433 -35 l  432 -35 l  430 -30 427 -26 424 -22 ct 420 -17 416 -13 411 -10 ct 
407 -7 401 -4 394 -2 ct 388 0 381 1 372 1 ct 361 1 350 -1 342 -5 ct 333 -9 327 -15 321 -23 ct 
316 -31 312 -41 310 -52 ct 307 -64 306 -78 306 -93 ct 306 -108 307 -122 310 -134 ct 
312 -146 316 -156 322 -164 ct 327 -173 334 -179 343 -183 ct 352 -188 363 -190 376 -190 ct 
389 -190 400 -187 410 -181 ct 420 -175 427 -166 433 -155 ct 433 -155 l  433 -158 433 -161 433 -165 ct 
433 -168 434 -172 434 -175 ct 434 -178 434 -181 434 -183 ct 435 -185 435 -187 435 -187 ct 
465 -187 l  464 -186 464 -184 464 -182 ct 464 -179 464 -176 464 -173 ct 464 -169 464 -166 464 -161 ct 
464 -157 464 -153 464 -148 ct 464 -6 l  464 20 457 40 444 53 ct 432 66 412 73 385 73 ct 
p
433 -94 m  433 -107 431 -118 428 -127 ct 426 -136 422 -144 417 -150 ct 413 -156 407 -160 402 -163 ct 
396 -166 390 -167 383 -167 ct 375 -167 369 -166 363 -163 ct 357 -160 353 -156 349 -150 ct 
345 -144 342 -136 341 -127 ct 339 -118 338 -107 338 -94 ct 338 -80 339 -69 341 -60 ct 
342 -51 345 -43 349 -38 ct 352 -32 357 -28 363 -26 ct 368 -23 375 -22 383 -22 ct 
389 -22 395 -23 401 -26 ct 407 -29 412 -33 417 -38 ct 422 -44 426 -52 428 -61 ct 
431 -70 433 -81 433 -94 ct p ef
523 -95 m  523 -84 524 -74 526 -65 ct 527 -56 530 -48 534 -42 ct 537 -35 542 -30 548 -27 ct 
554 -23 562 -21 570 -21 ct 581 -21 591 -24 598 -30 ct 606 -36 610 -45 612 -57 ct 
643 -57 l  642 -49 640 -42 636 -34 ct 633 -27 628 -21 622 -15 ct 617 -10 609 -5 601 -2 ct 
592 1 582 3 571 3 ct 557 3 544 1 534 -4 ct 524 -9 516 -16 509 -25 ct 503 -34 498 -44 495 -56 ct 
492 -67 491 -80 491 -94 ct 491 -106 492 -117 494 -127 ct 496 -137 499 -145 503 -152 ct 
507 -159 511 -165 516 -170 ct 521 -175 527 -179 532 -182 ct 538 -185 545 -187 551 -188 ct 
558 -190 564 -190 571 -190 ct 581 -190 591 -189 599 -186 ct 607 -183 614 -179 620 -174 ct 
626 -169 631 -163 634 -157 ct 638 -150 641 -142 642 -135 ct 610 -132 l  609 -143 605 -151 598 -157 ct 
591 -163 582 -166 570 -166 ct 561 -166 554 -165 548 -162 ct 542 -159 537 -154 534 -148 ct 
530 -142 527 -135 526 -126 ct 524 -117 523 -107 523 -95 ct p ef
656 70 m  656 48 l  861 48 l  861 70 l  656 70 l  p ef
871 0 m  871 -256 l  902 -256 l  902 0 l  871 0 l  p ef
988 -164 m  988 -1 l  957 -1 l  957 -164 l  931 -164 l  931 -187 l  957 -187 l 
957 -208 l  957 -215 958 -221 959 -227 ct 960 -233 963 -238 966 -242 ct 969 -246 974 -250 980 -252 ct 
986 -255 993 -256 1003 -256 ct 1006 -256 1010 -256 1014 -255 ct 1018 -255 1022 -255 1025 -254 ct 
1025 -230 l  1023 -231 1020 -231 1018 -231 ct 1015 -232 1013 -232 1011 -232 ct 
1006 -232 1002 -231 1000 -230 ct 997 -229 994 -227 993 -224 ct 991 -222 990 -219 989 -216 ct 
989 -212 988 -208 988 -204 ct 988 -187 l  1025 -187 l  1025 -164 l  988 -164 l 
p ef
1215 -122 m  1215 -99 1212 -79 1208 -63 ct 1203 -47 1197 -34 1190 -25 ct 1182 -15 1173 -8 1163 -3 ct 
1152 1 1141 3 1130 3 ct 1118 3 1107 1 1097 -3 ct 1086 -8 1078 -15 1070 -24 ct 1062 -34 1057 -47 1052 -63 ct 
1048 -79 1046 -99 1046 -122 ct 1046 -146 1048 -167 1052 -183 ct 1057 -199 1063 -212 1070 -221 ct 
1078 -231 1087 -237 1097 -241 ct 1107 -245 1119 -247 1131 -247 ct 1142 -247 1153 -245 1163 -241 ct 
1174 -237 1182 -231 1190 -221 ct 1198 -212 1204 -199 1208 -183 ct 1212 -167 1215 -146 1215 -122 ct 
p
1183 -122 m  1183 -141 1182 -157 1180 -170 ct 1177 -183 1174 -193 1169 -201 ct 
1165 -209 1159 -214 1153 -217 ct 1146 -220 1139 -222 1131 -222 ct 1122 -222 1114 -220 1108 -217 ct 
1101 -214 1095 -208 1091 -201 ct 1086 -193 1083 -183 1081 -170 ct 1078 -157 1077 -141 1077 -122 ct 
1077 -103 1078 -88 1081 -75 ct 1083 -62 1086 -52 1091 -44 ct 1096 -36 1101 -31 1108 -27 ct 
1114 -24 1122 -22 1130 -22 ct 1138 -22 1146 -24 1152 -27 ct 1159 -31 1164 -36 1169 -44 ct 
1173 -52 1177 -62 1179 -75 ct 1182 -88 1183 -103 1183 -122 ct p ef
1212 70 m  1212 48 l  1417 48 l  1417 70 l  1212 70 l  p ef
1544 -30 m  1538 -18 1530 -10 1521 -5 ct 1511 0 1499 3 1485 3 ct 1462 3 1445 -5 1433 -21 ct 
1422 -37 1417 -61 1417 -93 ct 1417 -158 1440 -190 1485 -190 ct 1500 -190 1511 -187 1521 -182 ct 
1530 -177 1538 -169 1544 -158 ct 1544 -158 l  1544 -159 1544 -161 1544 -163 ct 
1544 -166 1544 -168 1544 -171 ct 1544 -174 1544 -176 1544 -179 ct 1544 -181 1544 -183 1544 -184 ct 
1544 -256 l  1575 -256 l  1575 -39 l  1575 -34 1575 -30 1575 -26 ct 1575 -22 1575 -18 1575 -14 ct 
1575 -11 1575 -8 1575 -5 ct 1575 -3 1575 -1 1576 0 ct 1546 0 l  1546 -1 1545 -3 1545 -5 ct 
1545 -7 1545 -10 1545 -12 ct 1545 -15 1544 -18 1544 -21 ct 1544 -24 1544 -27 1544 -30 ct 
1544 -30 l  p
1449 -94 m  1449 -81 1450 -70 1452 -61 ct 1453 -52 1456 -44 1460 -38 ct 1463 -32 1468 -28 1473 -25 ct 
1479 -22 1485 -21 1493 -21 ct 1502 -21 1509 -22 1515 -25 ct 1521 -28 1526 -32 1531 -38 ct 
1535 -44 1538 -51 1540 -61 ct 1542 -70 1544 -82 1544 -96 ct 1544 -109 1542 -120 1540 -129 ct 
1538 -138 1535 -146 1531 -151 ct 1526 -157 1521 -161 1515 -163 ct 1509 -166 1502 -167 1494 -167 ct 
1486 -167 1480 -166 1474 -163 ct 1469 -160 1464 -156 1460 -150 ct 1457 -145 1454 -137 1452 -128 ct 
1450 -118 1449 -107 1449 -94 ct p ef
1642 -187 m  1642 -69 l  1642 -60 1643 -52 1644 -46 ct 1645 -40 1648 -35 1651 -31 ct 
1654 -27 1657 -25 1662 -23 ct 1667 -22 1673 -21 1681 -21 ct 1688 -21 1695 -22 1700 -25 ct 
1706 -27 1711 -31 1716 -36 ct 1720 -41 1723 -47 1725 -54 ct 1728 -61 1729 -70 1729 -79 ct 
1729 -187 l  1760 -187 l  1760 -40 l  1760 -36 1760 -32 1760 -28 ct 1760 -24 1760 -20 1760 -16 ct 
1760 -12 1760 -9 1761 -6 ct 1761 -3 1761 -1 1761 0 ct 1732 0 l  1731 -1 1731 -3 1731 -5 ct 
1731 -8 1731 -11 1731 -14 ct 1731 -17 1730 -20 1730 -24 ct 1730 -27 1730 -30 1730 -32 ct 
1730 -32 l  1727 -27 1723 -22 1720 -18 ct 1716 -13 1712 -10 1707 -7 ct 1703 -4 1697 -1 1691 1 ct 
1685 2 1678 3 1670 3 ct 1660 3 1651 2 1643 -1 ct 1636 -3 1630 -7 1625 -13 ct 1620 -18 1617 -25 1614 -33 ct 
1612 -41 1611 -51 1611 -63 ct 1611 -187 l  1642 -187 l  p ef
1797 0 m  1797 -143 l  1797 -147 1797 -151 1797 -155 ct 1797 -159 1797 -163 1797 -167 ct 
1797 -171 1797 -174 1797 -178 ct 1797 -181 1797 -184 1796 -187 ct 1826 -187 l 
1826 -184 1826 -181 1826 -178 ct 1826 -174 1827 -171 1827 -167 ct 1827 -164 1827 -160 1827 -157 ct 
1827 -154 1827 -151 1827 -148 ct 1828 -148 l  1830 -156 1832 -162 1835 -167 ct 
1837 -172 1840 -177 1844 -180 ct 1847 -183 1851 -186 1855 -188 ct 1860 -189 1866 -190 1872 -190 ct 
1875 -190 1877 -190 1879 -189 ct 1882 -189 1883 -189 1885 -188 ct 1885 -160 l 
1883 -160 1880 -161 1877 -161 ct 1875 -161 1872 -162 1868 -162 ct 1861 -162 1855 -160 1850 -157 ct 
1845 -154 1841 -149 1838 -143 ct 1835 -138 1832 -131 1831 -123 ct 1829 -115 1829 -107 1829 -97 ct 
1829 0 l  1797 0 l  p ef
pom
pum
1714 12307 t
183 -122 m  183 -99 180 -79 176 -63 ct 171 -47 165 -34 158 -25 ct 150 -15 141 -8 131 -3 ct 
120 1 109 3 98 3 ct 86 3 75 1 65 -3 ct 54 -8 46 -15 38 -24 ct 30 -34 25 -47 20 -63 ct 
16 -79 14 -99 14 -122 ct 14 -146 16 -167 20 -183 ct 25 -199 31 -212 38 -221 ct 
46 -231 55 -237 65 -241 ct 75 -245 87 -247 99 -247 ct 110 -247 121 -245 131 -241 ct 
142 -237 150 -231 158 -221 ct 166 -212 172 -199 176 -183 ct 180 -167 183 -146 183 -122 ct 
p
151 -122 m  151 -141 150 -157 148 -170 ct 145 -183 142 -193 137 -201 ct 133 -209 127 -214 121 -217 ct 
114 -220 107 -222 99 -222 ct 90 -222 82 -220 76 -217 ct 69 -214 63 -208 59 -201 ct 
54 -193 51 -183 49 -170 ct 46 -157 45 -141 45 -122 ct 45 -103 46 -88 49 -75 ct 
51 -62 54 -52 59 -44 ct 64 -36 69 -31 76 -27 ct 82 -24 90 -22 98 -22 ct 106 -22 114 -24 120 -27 ct 
127 -31 132 -36 137 -44 ct 141 -52 145 -62 147 -75 ct 150 -88 151 -103 151 -122 ct 
p ef
pom
pum
1529 11572 t
27 0 m  27 -26 l  89 -26 l  89 -213 l  34 -174 l  34 -204 l  91 -243 l 
120 -243 l  120 -26 l  179 -26 l  179 0 l  27 0 l  p ef
368 -122 m  368 -99 365 -79 361 -63 ct 356 -47 350 -34 343 -25 ct 335 -15 326 -8 316 -3 ct 
305 1 294 3 283 3 ct 271 3 260 1 250 -3 ct 239 -8 231 -15 223 -24 ct 215 -34 210 -47 205 -63 ct 
201 -79 199 -99 199 -122 ct 199 -146 201 -167 205 -183 ct 210 -199 216 -212 223 -221 ct 
231 -231 240 -237 250 -241 ct 260 -245 272 -247 284 -247 ct 295 -247 306 -245 316 -241 ct 
327 -237 335 -231 343 -221 ct 351 -212 357 -199 361 -183 ct 365 -167 368 -146 368 -122 ct 
p
336 -122 m  336 -141 335 -157 333 -170 ct 330 -183 327 -193 322 -201 ct 318 -209 312 -214 306 -217 ct 
299 -220 292 -222 284 -222 ct 275 -222 267 -220 261 -217 ct 254 -214 248 -208 244 -201 ct 
239 -193 236 -183 234 -170 ct 231 -157 230 -141 230 -122 ct 230 -103 231 -88 234 -75 ct 
236 -62 239 -52 244 -44 ct 249 -36 254 -31 261 -27 ct 267 -24 275 -22 283 -22 ct 
291 -22 299 -24 305 -27 ct 312 -31 317 -36 322 -44 ct 326 -52 330 -62 332 -75 ct 
335 -88 336 -103 336 -122 ct p ef
pom
pum
1529 10837 t
18 0 m  18 -22 l  24 -35 31 -47 39 -58 ct 48 -68 57 -77 66 -85 ct 75 -94 84 -101 94 -109 ct 
103 -116 111 -123 118 -130 ct 126 -137 132 -145 136 -152 ct 141 -160 143 -169 143 -179 ct 
143 -186 142 -192 140 -197 ct 138 -202 135 -207 131 -210 ct 127 -214 122 -217 117 -218 ct 
111 -220 105 -221 99 -221 ct 92 -221 87 -220 81 -218 ct 76 -217 71 -214 67 -211 ct 
62 -207 59 -203 56 -198 ct 53 -193 52 -187 51 -180 ct 19 -183 l  20 -192 23 -200 26 -208 ct 
30 -215 35 -222 42 -228 ct 49 -234 57 -238 66 -242 ct 75 -245 86 -247 99 -247 ct 
111 -247 121 -245 131 -242 ct 140 -239 148 -235 155 -229 ct 161 -224 166 -217 170 -209 ct 
173 -200 175 -191 175 -180 ct 175 -172 173 -164 170 -157 ct 167 -149 164 -142 159 -136 ct 
154 -129 148 -123 142 -116 ct 135 -110 129 -104 122 -98 ct 115 -92 107 -86 100 -81 ct 
93 -75 87 -69 80 -63 ct 74 -57 68 -51 63 -45 ct 58 -39 55 -33 52 -26 ct 179 -26 l 
179 0 l  18 0 l  p ef
368 -122 m  368 -99 365 -79 361 -63 ct 356 -47 350 -34 343 -25 ct 335 -15 326 -8 316 -3 ct 
305 1 294 3 283 3 ct 271 3 260 1 250 -3 ct 239 -8 231 -15 223 -24 ct 215 -34 210 -47 205 -63 ct 
201 -79 199 -99 199 -122 ct 199 -146 201 -167 205 -183 ct 210 -199 216 -212 223 -221 ct 
231 -231 240 -237 250 -241 ct 260 -245 272 -247 284 -247 ct 295 -247 306 -245 316 -241 ct 
327 -237 335 -231 343 -221 ct 351 -212 357 -199 361 -183 ct 365 -167 368 -146 368 -122 ct 
p
336 -122 m  336 -141 335 -157 333 -170 ct 330 -183 327 -193 322 -201 ct 318 -209 312 -214 306 -217 ct 
299 -220 292 -222 284 -222 ct 275 -222 267 -220 261 -217 ct 254 -214 248 -208 244 -201 ct 
239 -193 236 -183 234 -170 ct 231 -157 230 -141 230 -122 ct 230 -103 231 -88 234 -75 ct 
236 -62 239 -52 244 -44 ct 249 -36 254 -31 261 -27 ct 267 -24 275 -22 283 -22 ct 
291 -22 299 -24 305 -27 ct 312 -31 317 -36 322 -44 ct 326 -52 330 -62 332 -75 ct 
335 -88 336 -103 336 -122 ct p ef
pom
pum
1529 10102 t
181 -68 m  181 -57 179 -47 175 -38 ct 172 -29 166 -22 160 -16 ct 153 -10 144 -5 134 -2 ct 
123 1 112 3 98 3 ct 83 3 71 1 60 -3 ct 50 -6 42 -11 35 -17 ct 28 -24 23 -31 20 -39 ct 
17 -46 14 -55 13 -63 ct 46 -66 l  46 -60 48 -54 51 -48 ct 53 -43 56 -38 61 -35 ct 
65 -31 70 -28 76 -26 ct 83 -24 90 -23 98 -23 ct 114 -23 126 -27 135 -34 ct 144 -42 149 -54 149 -69 ct 
149 -78 147 -85 143 -90 ct 139 -96 134 -100 128 -103 ct 122 -106 115 -108 109 -109 ct 
102 -110 95 -111 89 -111 ct 72 -111 l  72 -138 l  89 -138 l  94 -138 101 -139 107 -140 ct 
113 -141 119 -143 124 -146 ct 129 -149 134 -154 137 -159 ct 141 -164 142 -171 142 -180 ct 
142 -193 138 -203 131 -210 ct 123 -218 112 -221 97 -221 ct 83 -221 72 -218 64 -211 ct 
55 -204 50 -194 49 -182 ct 18 -184 l  19 -195 22 -204 26 -212 ct 31 -220 37 -226 44 -231 ct 
51 -237 59 -241 68 -243 ct 77 -246 87 -247 97 -247 ct 111 -247 122 -245 132 -242 ct 
142 -239 150 -234 156 -228 ct 162 -222 167 -216 170 -208 ct 173 -200 174 -192 174 -183 ct 
174 -176 173 -169 171 -163 ct 169 -157 166 -151 162 -146 ct 158 -141 153 -137 146 -134 ct 
140 -130 132 -127 123 -125 ct 123 -125 l  133 -124 142 -122 149 -118 ct 156 -115 162 -111 167 -105 ct 
171 -100 175 -95 177 -88 ct 180 -82 181 -75 181 -68 ct p ef
368 -122 m  368 -99 365 -79 361 -63 ct 356 -47 350 -34 343 -25 ct 335 -15 326 -8 316 -3 ct 
305 1 294 3 283 3 ct 271 3 260 1 250 -3 ct 239 -8 231 -15 223 -24 ct 215 -34 210 -47 205 -63 ct 
201 -79 199 -99 199 -122 ct 199 -146 201 -167 205 -183 ct 210 -199 216 -212 223 -221 ct 
231 -231 240 -237 250 -241 ct 260 -245 272 -247 284 -247 ct 295 -247 306 -245 316 -241 ct 
327 -237 335 -231 343 -221 ct 351 -212 357 -199 361 -183 ct 365 -167 368 -146 368 -122 ct 
p
336 -122 m  336 -141 335 -157 333 -170 ct 330 -183 327 -193 322 -201 ct 318 -209 312 -214 306 -217 ct 
299 -220 292 -222 284 -222 ct 275 -222 267 -220 261 -217 ct 254 -214 248 -208 244 -201 ct 
239 -193 236 -183 234 -170 ct 231 -157 230 -141 230 -122 ct 230 -103 231 -88 234 -75 ct 
236 -62 239 -52 244 -44 ct 249 -36 254 -31 261 -27 ct 267 -24 275 -22 283 -22 ct 
291 -22 299 -24 305 -27 ct 312 -31 317 -36 322 -44 ct 326 -52 330 -62 332 -75 ct 
335 -88 336 -103 336 -122 ct p ef
pom
pum
1529 9367 t
152 -55 m  152 0 l  123 0 l  123 -55 l  8 -55 l  8 -79 l  119 -243 l  152 -243 l 
152 -79 l  186 -79 l  186 -55 l  152 -55 l  p
123 -208 m  122 -207 122 -206 121 -205 ct 120 -203 119 -201 118 -199 ct 117 -197 115 -195 114 -193 ct 
113 -191 112 -189 111 -187 ct 49 -96 l  48 -95 47 -94 46 -92 ct 45 -91 44 -89 43 -88 ct 
42 -86 41 -84 39 -83 ct 38 -81 37 -80 37 -79 ct 123 -79 l  123 -208 l  p ef
368 -122 m  368 -99 365 -79 361 -63 ct 356 -47 350 -34 343 -25 ct 335 -15 326 -8 316 -3 ct 
305 1 294 3 283 3 ct 271 3 260 1 250 -3 ct 239 -8 231 -15 223 -24 ct 215 -34 210 -47 205 -63 ct 
201 -79 199 -99 199 -122 ct 199 -146 201 -167 205 -183 ct 210 -199 216 -212 223 -221 ct 
231 -231 240 -237 250 -241 ct 260 -245 272 -247 284 -247 ct 295 -247 306 -245 316 -241 ct 
327 -237 335 -231 343 -221 ct 351 -212 357 -199 361 -183 ct 365 -167 368 -146 368 -122 ct 
p
336 -122 m  336 -141 335 -157 333 -170 ct 330 -183 327 -193 322 -201 ct 318 -209 312 -214 306 -217 ct 
299 -220 292 -222 284 -222 ct 275 -222 267 -220 261 -217 ct 254 -214 248 -208 244 -201 ct 
239 -193 236 -183 234 -170 ct 231 -157 230 -141 230 -122 ct 230 -103 231 -88 234 -75 ct 
236 -62 239 -52 244 -44 ct 249 -36 254 -31 261 -27 ct 267 -24 275 -22 283 -22 ct 
291 -22 299 -24 305 -27 ct 312 -31 317 -36 322 -44 ct 326 -52 330 -62 332 -75 ct 
335 -88 336 -103 336 -122 ct p ef
pom
pum
1529 8632 t
182 -80 m  182 -67 180 -56 176 -46 ct 172 -36 167 -27 160 -20 ct 152 -13 143 -7 133 -3 ct 
122 1 109 3 95 3 ct 83 3 71 1 62 -1 ct 52 -4 44 -9 38 -14 ct 31 -19 26 -25 22 -32 ct 
18 -39 16 -47 14 -55 ct 46 -58 l  47 -54 49 -49 51 -45 ct 53 -41 56 -37 60 -33 ct 
64 -30 69 -27 75 -25 ct 81 -23 88 -22 96 -22 ct 104 -22 111 -24 118 -26 ct 124 -29 130 -32 135 -37 ct 
139 -42 143 -48 145 -55 ct 148 -62 149 -70 149 -79 ct 149 -86 148 -93 146 -99 ct 
143 -106 140 -111 135 -116 ct 131 -120 125 -124 119 -126 ct 112 -129 105 -130 97 -130 ct 
92 -130 87 -130 82 -129 ct 78 -128 74 -126 70 -125 ct 67 -123 63 -121 60 -119 ct 
57 -117 54 -115 52 -113 ct 21 -113 l  29 -243 l  167 -243 l  167 -217 l  58 -217 l 
53 -140 l  58 -144 65 -148 74 -151 ct 82 -154 92 -155 103 -155 ct 115 -155 126 -154 136 -150 ct 
145 -146 154 -141 160 -134 ct 167 -128 172 -120 176 -110 ct 180 -101 182 -91 182 -80 ct 
p ef
368 -122 m  368 -99 365 -79 361 -63 ct 356 -47 350 -34 343 -25 ct 335 -15 326 -8 316 -3 ct 
305 1 294 3 283 3 ct 271 3 260 1 250 -3 ct 239 -8 231 -15 223 -24 ct 215 -34 210 -47 205 -63 ct 
201 -79 199 -99 199 -122 ct 199 -146 201 -167 205 -183 ct 210 -199 216 -212 223 -221 ct 
231 -231 240 -237 250 -241 ct 260 -245 272 -247 284 -247 ct 295 -247 306 -245 316 -241 ct 
327 -237 335 -231 343 -221 ct 351 -212 357 -199 361 -183 ct 365 -167 368 -146 368 -122 ct 
p
336 -122 m  336 -141 335 -157 333 -170 ct 330 -183 327 -193 322 -201 ct 318 -209 312 -214 306 -217 ct 
299 -220 292 -222 284 -222 ct 275 -222 267 -220 261 -217 ct 254 -214 248 -208 244 -201 ct 
239 -193 236 -183 234 -170 ct 231 -157 230 -141 230 -122 ct 230 -103 231 -88 234 -75 ct 
236 -62 239 -52 244 -44 ct 249 -36 254 -31 261 -27 ct 267 -24 275 -22 283 -22 ct 
291 -22 299 -24 305 -27 ct 312 -31 317 -36 322 -44 ct 326 -52 330 -62 332 -75 ct 
335 -88 336 -103 336 -122 ct p ef
pom
pum
1529 7896 t
181 -80 m  181 -68 179 -57 176 -47 ct 172 -36 167 -28 161 -20 ct 154 -13 146 -7 136 -3 ct 
126 1 115 3 102 3 ct 88 3 76 0 65 -5 ct 55 -11 46 -18 39 -28 ct 32 -39 27 -51 23 -66 ct 
20 -81 18 -97 18 -116 ct 18 -138 20 -157 24 -173 ct 28 -190 34 -203 41 -214 ct 
48 -225 58 -233 68 -239 ct 79 -244 91 -247 105 -247 ct 113 -247 121 -246 128 -244 ct 
135 -243 142 -240 148 -236 ct 154 -232 159 -227 163 -221 ct 168 -215 171 -207 174 -198 ct 
144 -192 l  141 -203 136 -210 129 -215 ct 122 -220 114 -222 104 -222 ct 96 -222 88 -220 81 -216 ct 
74 -212 69 -206 64 -198 ct 59 -190 55 -180 53 -168 ct 50 -156 49 -142 49 -126 ct 
54 -136 62 -144 73 -150 ct 83 -155 95 -158 108 -158 ct 119 -158 129 -156 138 -153 ct 
147 -149 154 -144 161 -137 ct 167 -130 172 -122 176 -113 ct 179 -103 181 -92 181 -80 ct 
p
149 -79 m  149 -87 148 -95 146 -102 ct 144 -108 141 -114 137 -119 ct 133 -124 128 -128 122 -130 ct 
115 -133 108 -134 100 -134 ct 95 -134 89 -133 83 -131 ct 78 -130 72 -127 68 -123 ct 
63 -120 59 -115 56 -109 ct 53 -102 52 -95 52 -86 ct 52 -77 53 -69 55 -61 ct 58 -53 61 -46 65 -41 ct 
70 -35 75 -30 81 -27 ct 87 -24 94 -22 101 -22 ct 109 -22 116 -23 121 -26 ct 127 -29 132 -32 137 -37 ct 
141 -42 144 -48 146 -55 ct 148 -62 149 -70 149 -79 ct p ef
368 -122 m  368 -99 365 -79 361 -63 ct 356 -47 350 -34 343 -25 ct 335 -15 326 -8 316 -3 ct 
305 1 294 3 283 3 ct 271 3 260 1 250 -3 ct 239 -8 231 -15 223 -24 ct 215 -34 210 -47 205 -63 ct 
201 -79 199 -99 199 -122 ct 199 -146 201 -167 205 -183 ct 210 -199 216 -212 223 -221 ct 
231 -231 240 -237 250 -241 ct 260 -245 272 -247 284 -247 ct 295 -247 306 -245 316 -241 ct 
327 -237 335 -231 343 -221 ct 351 -212 357 -199 361 -183 ct 365 -167 368 -146 368 -122 ct 
p
336 -122 m  336 -141 335 -157 333 -170 ct 330 -183 327 -193 322 -201 ct 318 -209 312 -214 306 -217 ct 
299 -220 292 -222 284 -222 ct 275 -222 267 -220 261 -217 ct 254 -214 248 -208 244 -201 ct 
239 -193 236 -183 234 -170 ct 231 -157 230 -141 230 -122 ct 230 -103 231 -88 234 -75 ct 
236 -62 239 -52 244 -44 ct 249 -36 254 -31 261 -27 ct 267 -24 275 -22 283 -22 ct 
291 -22 299 -24 305 -27 ct 312 -31 317 -36 322 -44 ct 326 -52 330 -62 332 -75 ct 
335 -88 336 -103 336 -122 ct p ef
pom
pum
1529 7162 t
179 -218 m  166 -200 155 -182 145 -165 ct 135 -147 126 -130 119 -113 ct 111 -95 106 -77 101 -59 ct 
97 -41 95 -21 95 -1 ct 63 -1 l  63 -20 65 -39 70 -58 ct 74 -76 81 -95 88 -113 ct 
96 -131 105 -148 116 -166 ct 126 -183 137 -200 149 -217 ct 18 -217 l  18 -243 l 
179 -243 l  179 -218 l  p ef
368 -122 m  368 -99 365 -79 361 -63 ct 356 -47 350 -34 343 -25 ct 335 -15 326 -8 316 -3 ct 
305 1 294 3 283 3 ct 271 3 260 1 250 -3 ct 239 -8 231 -15 223 -24 ct 215 -34 210 -47 205 -63 ct 
201 -79 199 -99 199 -122 ct 199 -146 201 -167 205 -183 ct 210 -199 216 -212 223 -221 ct 
231 -231 240 -237 250 -241 ct 260 -245 272 -247 284 -247 ct 295 -247 306 -245 316 -241 ct 
327 -237 335 -231 343 -221 ct 351 -212 357 -199 361 -183 ct 365 -167 368 -146 368 -122 ct 
p
336 -122 m  336 -141 335 -157 333 -170 ct 330 -183 327 -193 322 -201 ct 318 -209 312 -214 306 -217 ct 
299 -220 292 -222 284 -222 ct 275 -222 267 -220 261 -217 ct 254 -214 248 -208 244 -201 ct 
239 -193 236 -183 234 -170 ct 231 -157 230 -141 230 -122 ct 230 -103 231 -88 234 -75 ct 
236 -62 239 -52 244 -44 ct 249 -36 254 -31 261 -27 ct 267 -24 275 -22 283 -22 ct 
291 -22 299 -24 305 -27 ct 312 -31 317 -36 322 -44 ct 326 -52 330 -62 332 -75 ct 
335 -88 336 -103 336 -122 ct p ef
pom
pum
1529 6427 t
181 -68 m  181 -58 179 -48 176 -40 ct 173 -31 168 -24 161 -17 ct 154 -11 146 -6 135 -2 ct 
125 1 113 3 98 3 ct 84 3 72 1 61 -2 ct 51 -6 42 -11 35 -17 ct 29 -23 24 -31 20 -40 ct 
17 -48 15 -58 15 -68 ct 15 -77 17 -85 19 -92 ct 22 -98 26 -104 30 -109 ct 35 -114 40 -118 46 -121 ct 
52 -125 58 -127 64 -128 ct 64 -128 l  57 -130 51 -132 46 -136 ct 40 -140 36 -144 32 -149 ct 
29 -154 26 -159 24 -166 ct 22 -172 21 -178 21 -185 ct 21 -193 23 -201 26 -209 ct 
29 -216 34 -223 41 -229 ct 47 -234 55 -239 64 -242 ct 74 -245 85 -247 98 -247 ct 
111 -247 122 -245 132 -242 ct 142 -239 150 -234 156 -228 ct 162 -223 167 -216 170 -209 ct 
173 -201 175 -193 175 -184 ct 175 -178 174 -171 172 -165 ct 170 -159 167 -154 164 -149 ct 
160 -144 156 -139 150 -136 ct 145 -132 139 -130 132 -129 ct 132 -128 l  139 -127 145 -125 151 -122 ct 
157 -119 162 -115 167 -110 ct 171 -105 175 -99 177 -92 ct 180 -85 181 -77 181 -68 ct 
p
143 -183 m  143 -189 142 -194 140 -199 ct 139 -204 136 -209 133 -212 ct 129 -216 125 -219 119 -221 ct 
113 -223 106 -224 98 -224 ct 89 -224 83 -223 77 -221 ct 71 -219 67 -216 63 -212 ct 
59 -209 57 -204 55 -199 ct 54 -194 53 -189 53 -183 ct 53 -178 53 -173 55 -168 ct 
56 -163 58 -158 62 -154 ct 65 -150 69 -147 75 -144 ct 81 -141 89 -140 98 -140 ct 
108 -140 116 -141 121 -144 ct 127 -147 132 -150 135 -154 ct 138 -158 140 -163 141 -168 ct 
142 -173 143 -178 143 -183 ct p
149 -71 m  149 -77 148 -83 146 -88 ct 145 -94 142 -98 138 -103 ct 134 -107 129 -110 122 -113 ct 
116 -115 107 -117 98 -117 ct 88 -117 81 -115 74 -113 ct 68 -110 63 -107 59 -103 ct 
55 -98 52 -93 50 -88 ct 48 -82 47 -76 47 -70 ct 47 -63 48 -56 50 -50 ct 52 -44 55 -39 59 -34 ct 
63 -30 68 -26 75 -24 ct 81 -21 89 -20 99 -20 ct 108 -20 116 -21 122 -24 ct 129 -26 134 -30 138 -34 ct 
142 -39 145 -44 146 -50 ct 148 -56 149 -63 149 -71 ct p ef
368 -122 m  368 -99 365 -79 361 -63 ct 356 -47 350 -34 343 -25 ct 335 -15 326 -8 316 -3 ct 
305 1 294 3 283 3 ct 271 3 260 1 250 -3 ct 239 -8 231 -15 223 -24 ct 215 -34 210 -47 205 -63 ct 
201 -79 199 -99 199 -122 ct 199 -146 201 -167 205 -183 ct 210 -199 216 -212 223 -221 ct 
231 -231 240 -237 250 -241 ct 260 -245 272 -247 284 -247 ct 295 -247 306 -245 316 -241 ct 
327 -237 335 -231 343 -221 ct 351 -212 357 -199 361 -183 ct 365 -167 368 -146 368 -122 ct 
p
336 -122 m  336 -141 335 -157 333 -170 ct 330 -183 327 -193 322 -201 ct 318 -209 312 -214 306 -217 ct 
299 -220 292 -222 284 -222 ct 275 -222 267 -220 261 -217 ct 254 -214 248 -208 244 -201 ct 
239 -193 236 -183 234 -170 ct 231 -157 230 -141 230 -122 ct 230 -103 231 -88 234 -75 ct 
236 -62 239 -52 244 -44 ct 249 -36 254 -31 261 -27 ct 267 -24 275 -22 283 -22 ct 
291 -22 299 -24 305 -27 ct 312 -31 317 -36 322 -44 ct 326 -52 330 -62 332 -75 ct 
335 -88 336 -103 336 -122 ct p ef
pom
pum
1529 5692 t
180 -127 m  180 -105 178 -86 173 -70 ct 169 -54 164 -40 156 -29 ct 148 -19 139 -11 128 -5 ct 
117 0 105 3 92 3 ct 82 3 74 2 67 0 ct 59 -2 52 -5 47 -9 ct 41 -13 36 -18 32 -24 ct 
27 -31 24 -39 22 -48 ct 51 -52 l  54 -42 59 -34 66 -29 ct 73 -24 82 -22 92 -22 ct 
101 -22 108 -24 115 -28 ct 122 -32 128 -38 133 -46 ct 138 -54 142 -64 144 -76 ct 
147 -88 149 -102 149 -118 ct 147 -112 143 -108 139 -103 ct 135 -99 130 -95 125 -93 ct 
119 -90 114 -87 107 -86 ct 101 -84 95 -84 89 -84 ct 78 -84 68 -86 59 -89 ct 50 -93 42 -99 36 -106 ct 
30 -113 25 -122 22 -132 ct 18 -142 17 -153 17 -165 ct 17 -178 18 -189 22 -199 ct 
26 -209 31 -218 38 -225 ct 45 -232 53 -238 63 -241 ct 73 -245 85 -247 97 -247 ct 
124 -247 145 -237 159 -217 ct 173 -197 180 -167 180 -127 ct p
146 -157 m  146 -166 145 -174 143 -182 ct 141 -190 137 -197 133 -203 ct 129 -209 124 -213 118 -217 ct 
112 -220 104 -222 96 -222 ct 89 -222 82 -221 76 -218 ct 70 -215 65 -211 61 -207 ct 
57 -202 54 -196 51 -189 ct 49 -182 48 -174 48 -165 ct 48 -157 49 -150 51 -143 ct 
53 -136 56 -130 60 -124 ct 64 -119 69 -115 75 -112 ct 81 -109 88 -108 96 -108 ct 
102 -108 108 -109 114 -111 ct 119 -113 125 -116 130 -120 ct 134 -124 138 -129 141 -135 ct 
144 -141 146 -149 146 -157 ct p ef
368 -122 m  368 -99 365 -79 361 -63 ct 356 -47 350 -34 343 -25 ct 335 -15 326 -8 316 -3 ct 
305 1 294 3 283 3 ct 271 3 260 1 250 -3 ct 239 -8 231 -15 223 -24 ct 215 -34 210 -47 205 -63 ct 
201 -79 199 -99 199 -122 ct 199 -146 201 -167 205 -183 ct 210 -199 216 -212 223 -221 ct 
231 -231 240 -237 250 -241 ct 260 -245 272 -247 284 -247 ct 295 -247 306 -245 316 -241 ct 
327 -237 335 -231 343 -221 ct 351 -212 357 -199 361 -183 ct 365 -167 368 -146 368 -122 ct 
p
336 -122 m  336 -141 335 -157 333 -170 ct 330 -183 327 -193 322 -201 ct 318 -209 312 -214 306 -217 ct 
299 -220 292 -222 284 -222 ct 275 -222 267 -220 261 -217 ct 254 -214 248 -208 244 -201 ct 
239 -193 236 -183 234 -170 ct 231 -157 230 -141 230 -122 ct 230 -103 231 -88 234 -75 ct 
236 -62 239 -52 244 -44 ct 249 -36 254 -31 261 -27 ct 267 -24 275 -22 283 -22 ct 
291 -22 299 -24 305 -27 ct 312 -31 317 -36 322 -44 ct 326 -52 330 -62 332 -75 ct 
335 -88 336 -103 336 -122 ct p ef
pom
0.003 0.273 0.527 c 13984 9549 m  13878 9549 l  13878 9338 l  14089 9338 l 
14089 9549 l  13984 9549 l  p ef
1.000 0.261 0.058 c 13984 10046 m  13878 10046 l  13878 9835 l  14089 9835 l 
14089 10046 l  13984 10046 l  p ef
pum
14189 9563 t
0.003 0.003 0.003 c 29 0 m  29 -243 l  213 -243 l  213 -216 l  62 -216 l  62 -138 l 
203 -138 l  203 -111 l  62 -111 l  62 -27 l  220 -27 l  220 0 l  29 0 l 
p ef
380 0 m  380 -118 l  380 -127 380 -135 378 -141 ct 377 -147 375 -152 372 -156 ct 
369 -160 365 -162 360 -164 ct 355 -165 349 -166 342 -166 ct 334 -166 328 -165 322 -162 ct 
316 -160 311 -156 307 -151 ct 302 -146 299 -140 297 -133 ct 295 -126 294 -117 294 -108 ct 
294 0 l  262 0 l  262 -147 l  262 -151 262 -155 262 -159 ct 262 -163 262 -167 262 -171 ct 
262 -175 262 -178 262 -181 ct 262 -184 262 -186 261 -187 ct 291 -187 l  291 -186 291 -184 291 -182 ct 
291 -179 291 -176 292 -173 ct 292 -170 292 -167 292 -163 ct 292 -160 292 -157 292 -155 ct 
293 -155 l  296 -160 299 -165 302 -169 ct 306 -174 310 -177 315 -180 ct 320 -183 325 -186 331 -188 ct 
337 -189 344 -190 352 -190 ct 363 -190 372 -189 379 -186 ct 386 -184 393 -180 397 -174 ct 
402 -169 406 -162 408 -154 ct 410 -146 411 -136 411 -124 ct 411 0 l  380 0 l 
p ef
517 73 m  507 73 497 72 489 70 ct 481 68 474 64 468 60 ct 462 56 457 51 454 46 ct 
450 40 447 34 446 27 ct 477 22 l  479 31 483 38 490 42 ct 498 47 507 49 518 49 ct 
525 49 532 48 537 46 ct 543 44 548 41 552 37 ct 556 33 559 27 561 20 ct 564 13 565 5 565 -5 ct 
565 -35 l  564 -35 l  562 -30 559 -26 556 -22 ct 552 -17 548 -13 543 -10 ct 
539 -7 533 -4 526 -2 ct 520 0 513 1 504 1 ct 493 1 482 -1 474 -5 ct 465 -9 459 -15 453 -23 ct 
448 -31 444 -41 442 -52 ct 439 -64 438 -78 438 -93 ct 438 -108 439 -122 442 -134 ct 
444 -146 448 -156 454 -164 ct 459 -173 466 -179 475 -183 ct 484 -188 495 -190 508 -190 ct 
521 -190 532 -187 542 -181 ct 552 -175 559 -166 565 -155 ct 565 -155 l  565 -158 565 -161 565 -165 ct 
565 -168 566 -172 566 -175 ct 566 -178 566 -181 566 -183 ct 567 -185 567 -187 567 -187 ct 
597 -187 l  596 -186 596 -184 596 -182 ct 596 -179 596 -176 596 -173 ct 596 -169 596 -166 596 -161 ct 
596 -157 596 -153 596 -148 ct 596 -6 l  596 20 589 40 576 53 ct 564 66 544 73 517 73 ct 
p
565 -94 m  565 -107 563 -118 560 -127 ct 558 -136 554 -144 549 -150 ct 545 -156 539 -160 534 -163 ct 
528 -166 522 -167 515 -167 ct 507 -167 501 -166 495 -163 ct 489 -160 485 -156 481 -150 ct 
477 -144 474 -136 473 -127 ct 471 -118 470 -107 470 -94 ct 470 -80 471 -69 473 -60 ct 
474 -51 477 -43 481 -38 ct 484 -32 489 -28 495 -26 ct 500 -23 507 -22 515 -22 ct 
521 -22 527 -23 533 -26 ct 539 -29 544 -33 549 -38 ct 554 -44 558 -52 560 -61 ct 
563 -70 565 -81 565 -94 ct p ef
633 0 m  633 -256 l  664 -256 l  664 0 l  633 0 l  p ef
712 -226 m  712 -256 l  743 -256 l  743 -226 l  712 -226 l  p
712 0 m  712 -187 l  743 -187 l  743 0 l  712 0 l  p ef
931 -52 m  931 -43 929 -36 926 -29 ct 922 -22 917 -16 911 -11 ct 904 -7 897 -3 887 -1 ct 
878 2 867 3 855 3 ct 844 3 835 2 826 1 ct 817 -1 810 -4 803 -8 ct 796 -11 791 -16 787 -22 ct 
782 -28 779 -36 777 -44 ct 804 -50 l  807 -40 812 -32 821 -28 ct 829 -23 840 -21 855 -21 ct 
862 -21 868 -21 873 -22 ct 879 -23 884 -25 888 -27 ct 892 -29 895 -32 897 -36 ct 
899 -39 901 -44 901 -50 ct 901 -55 899 -60 897 -63 ct 894 -67 890 -70 886 -73 ct 
881 -75 875 -77 868 -79 ct 862 -81 854 -83 846 -85 ct 839 -87 831 -89 824 -91 ct 
817 -94 810 -97 804 -101 ct 798 -105 793 -110 790 -116 ct 786 -122 784 -129 784 -138 ct 
784 -155 790 -168 802 -177 ct 815 -186 832 -190 855 -190 ct 876 -190 892 -186 904 -179 ct 
917 -172 924 -160 927 -144 ct 900 -141 l  899 -146 897 -150 894 -153 ct 891 -156 888 -159 884 -161 ct 
880 -163 876 -164 871 -165 ct 866 -166 861 -167 855 -167 ct 841 -167 831 -164 824 -160 ct 
818 -156 814 -149 814 -141 ct 814 -136 816 -132 818 -128 ct 821 -125 824 -122 828 -120 ct 
833 -118 838 -116 844 -114 ct 851 -113 857 -111 865 -109 ct 870 -108 875 -106 880 -105 ct 
885 -103 890 -102 895 -100 ct 900 -98 905 -95 909 -93 ct 913 -90 917 -87 920 -83 ct 
923 -79 926 -75 928 -70 ct 930 -65 931 -59 931 -52 ct p ef
1008 -155 m  1011 -161 1015 -166 1019 -171 ct 1023 -175 1027 -179 1032 -182 ct 
1037 -185 1042 -187 1048 -188 ct 1054 -189 1060 -190 1067 -190 ct 1079 -190 1089 -188 1097 -185 ct 
1104 -182 1110 -177 1115 -172 ct 1119 -166 1122 -159 1124 -151 ct 1126 -143 1126 -134 1126 -124 ct 
1126 0 l  1095 0 l  1095 -118 l  1095 -126 1095 -133 1094 -139 ct 1093 -145 1091 -150 1088 -154 ct 
1085 -158 1081 -161 1076 -163 ct 1071 -165 1065 -166 1057 -166 ct 1049 -166 1043 -165 1037 -162 ct 
1031 -159 1026 -156 1022 -151 ct 1017 -146 1014 -140 1012 -133 ct 1010 -126 1009 -119 1009 -110 ct 
1009 0 l  977 0 l  977 -256 l  1009 -256 l  1009 -189 l  1009 -186 1008 -182 1008 -178 ct 
1008 -174 1008 -171 1008 -167 ct 1008 -164 1008 -162 1007 -159 ct 1007 -157 1007 -155 1007 -155 ct 
1008 -155 l  p ef
pom
pum
14189 10060 t
79 3 m  59 3 43 -2 30 -12 ct 18 -23 10 -39 6 -61 ct 38 -66 l  39 -59 41 -52 43 -47 ct 
46 -42 49 -37 53 -34 ct 57 -30 61 -28 65 -26 ct 70 -25 74 -24 79 -24 ct 91 -24 100 -28 107 -36 ct 
114 -44 118 -56 118 -72 ct 118 -216 l  71 -216 l  71 -243 l  150 -243 l  150 -73 l 
150 -61 149 -51 145 -41 ct 142 -32 138 -24 131 -18 ct 125 -11 118 -6 109 -2 ct 
100 1 90 3 79 3 ct p ef
256 3 m  238 3 224 -2 214 -12 ct 205 -22 200 -35 200 -53 ct 200 -65 202 -75 207 -83 ct 
212 -91 218 -97 225 -102 ct 233 -106 241 -109 251 -111 ct 261 -113 271 -114 280 -114 ct 
322 -114 l  322 -124 l  322 -132 322 -138 320 -144 ct 318 -149 316 -154 313 -157 ct 
309 -161 305 -163 300 -165 ct 295 -166 289 -167 282 -167 ct 276 -167 271 -167 266 -166 ct 
261 -165 257 -163 254 -161 ct 250 -159 247 -156 245 -152 ct 243 -148 241 -143 241 -137 ct 
208 -140 l  209 -148 212 -154 215 -160 ct 218 -167 223 -172 229 -176 ct 234 -181 242 -184 251 -187 ct 
260 -189 270 -191 283 -191 ct 307 -191 324 -185 336 -175 ct 348 -164 354 -148 354 -128 ct 
354 -48 l  354 -38 355 -31 357 -27 ct 360 -22 364 -20 371 -20 ct 373 -20 375 -20 376 -20 ct 
378 -20 380 -21 381 -21 ct 381 -2 l  377 -1 374 0 370 0 ct 366 1 362 1 357 1 ct 
352 1 346 0 342 -1 ct 338 -3 335 -5 332 -8 ct 329 -11 327 -15 326 -20 ct 325 -25 324 -30 323 -36 ct 
322 -36 l  319 -30 315 -25 311 -20 ct 307 -15 303 -11 298 -8 ct 292 -4 286 -2 280 0 ct 
273 2 265 3 256 3 ct p
263 -20 m  273 -20 282 -22 289 -26 ct 297 -29 303 -34 308 -39 ct 313 -45 316 -51 319 -58 ct 
321 -64 322 -71 322 -77 ct 322 -92 l  288 -92 l  281 -92 274 -92 267 -91 ct 
260 -90 254 -88 249 -85 ct 244 -82 240 -78 236 -73 ct 233 -67 232 -61 232 -52 ct 
232 -42 235 -34 240 -29 ct 246 -23 253 -20 263 -20 ct p ef
552 -94 m  552 -80 550 -67 548 -55 ct 546 -43 542 -33 537 -25 ct 531 -16 524 -9 515 -4 ct 
507 1 496 3 483 3 ct 470 3 458 0 448 -5 ct 438 -10 430 -18 425 -29 ct 424 -29 l 
424 -29 424 -28 424 -26 ct 424 -24 425 -22 425 -19 ct 425 -17 425 -14 425 -10 ct 
425 -7 425 -3 425 0 ct 425 73 l  394 73 l  394 -149 l  394 -153 394 -158 394 -162 ct 
394 -166 394 -170 393 -173 ct 393 -176 393 -179 393 -182 ct 393 -184 393 -186 393 -187 ct 
423 -187 l  423 -187 423 -185 423 -183 ct 423 -181 424 -179 424 -176 ct 424 -173 424 -170 424 -166 ct 
424 -163 424 -160 424 -157 ct 425 -157 l  428 -163 431 -168 435 -172 ct 439 -176 443 -180 448 -182 ct 
452 -185 458 -187 463 -188 ct 469 -189 476 -190 483 -190 ct 496 -190 507 -188 515 -183 ct 
524 -179 531 -172 537 -164 ct 542 -155 546 -145 548 -134 ct 550 -122 552 -109 552 -94 ct 
p
519 -94 m  519 -105 518 -115 517 -124 ct 515 -133 513 -141 510 -147 ct 506 -153 502 -158 496 -161 ct 
491 -164 483 -166 475 -166 ct 468 -166 462 -165 455 -163 ct 449 -161 444 -157 440 -152 ct 
435 -146 431 -139 429 -129 ct 426 -119 425 -107 425 -91 ct 425 -78 426 -67 428 -58 ct 
430 -49 433 -41 438 -36 ct 442 -30 447 -26 453 -24 ct 459 -21 467 -20 475 -20 ct 
483 -20 490 -22 496 -25 ct 502 -28 506 -33 510 -39 ct 513 -46 515 -53 517 -63 ct 
518 -72 519 -82 519 -94 ct p ef
627 3 m  609 3 595 -2 585 -12 ct 576 -22 571 -35 571 -53 ct 571 -65 573 -75 578 -83 ct 
583 -91 589 -97 596 -102 ct 604 -106 612 -109 622 -111 ct 632 -113 642 -114 651 -114 ct 
693 -114 l  693 -124 l  693 -132 693 -138 691 -144 ct 689 -149 687 -154 684 -157 ct 
680 -161 676 -163 671 -165 ct 666 -166 660 -167 653 -167 ct 647 -167 642 -167 637 -166 ct 
632 -165 628 -163 625 -161 ct 621 -159 618 -156 616 -152 ct 614 -148 612 -143 612 -137 ct 
579 -140 l  580 -148 583 -154 586 -160 ct 589 -167 594 -172 600 -176 ct 605 -181 613 -184 622 -187 ct 
631 -189 641 -191 654 -191 ct 678 -191 695 -185 707 -175 ct 719 -164 725 -148 725 -128 ct 
725 -48 l  725 -38 726 -31 728 -27 ct 731 -22 735 -20 742 -20 ct 744 -20 746 -20 747 -20 ct 
749 -20 751 -21 752 -21 ct 752 -2 l  748 -1 745 0 741 0 ct 737 1 733 1 728 1 ct 
723 1 717 0 713 -1 ct 709 -3 706 -5 703 -8 ct 700 -11 698 -15 697 -20 ct 696 -25 695 -30 694 -36 ct 
693 -36 l  690 -30 686 -25 682 -20 ct 678 -15 674 -11 669 -8 ct 663 -4 657 -2 651 0 ct 
644 2 636 3 627 3 ct p
634 -20 m  644 -20 653 -22 660 -26 ct 668 -29 674 -34 679 -39 ct 684 -45 687 -51 690 -58 ct 
692 -64 693 -71 693 -77 ct 693 -92 l  659 -92 l  652 -92 645 -92 638 -91 ct 
631 -90 625 -88 620 -85 ct 615 -82 611 -78 607 -73 ct 604 -67 603 -61 603 -52 ct 
603 -42 606 -34 611 -29 ct 617 -23 624 -20 634 -20 ct p ef
883 0 m  883 -118 l  883 -127 883 -135 881 -141 ct 880 -147 878 -152 875 -156 ct 
872 -160 868 -162 863 -164 ct 858 -165 852 -166 845 -166 ct 837 -166 831 -165 825 -162 ct 
819 -160 814 -156 810 -151 ct 805 -146 802 -140 800 -133 ct 798 -126 797 -117 797 -108 ct 
797 0 l  765 0 l  765 -147 l  765 -151 765 -155 765 -159 ct 765 -163 765 -167 765 -171 ct 
765 -175 765 -178 765 -181 ct 765 -184 765 -186 764 -187 ct 794 -187 l  794 -186 794 -184 794 -182 ct 
794 -179 794 -176 795 -173 ct 795 -170 795 -167 795 -163 ct 795 -160 795 -157 795 -155 ct 
796 -155 l  799 -160 802 -165 805 -169 ct 809 -174 813 -177 818 -180 ct 823 -183 828 -186 834 -188 ct 
840 -189 847 -190 855 -190 ct 866 -190 875 -189 882 -186 ct 889 -184 896 -180 900 -174 ct 
905 -169 909 -162 911 -154 ct 913 -146 914 -136 914 -124 ct 914 0 l  883 0 l 
p ef
974 -87 m  974 -77 975 -68 977 -60 ct 979 -52 982 -45 986 -39 ct 990 -33 995 -28 1002 -25 ct 
1009 -22 1016 -20 1026 -20 ct 1039 -20 1050 -23 1058 -28 ct 1066 -34 1072 -41 1074 -49 ct 
1102 -41 l  1100 -36 1097 -31 1093 -26 ct 1090 -20 1085 -16 1079 -11 ct 1074 -7 1066 -4 1057 -1 ct 
1049 2 1038 3 1026 3 ct 998 3 977 -5 963 -22 ct 948 -38 941 -62 941 -95 ct 941 -112 943 -127 948 -139 ct 
952 -151 958 -161 965 -169 ct 973 -176 982 -182 992 -185 ct 1002 -188 1013 -190 1024 -190 ct 
1040 -190 1053 -187 1064 -182 ct 1074 -177 1083 -170 1089 -162 ct 1095 -153 1100 -142 1103 -130 ct 
1105 -118 1107 -105 1107 -91 ct 1107 -87 l  974 -87 l  p
1075 -111 m  1073 -130 1068 -145 1060 -154 ct 1051 -163 1039 -167 1024 -167 ct 
1019 -167 1013 -166 1008 -165 ct 1002 -163 997 -160 992 -156 ct 987 -152 983 -146 980 -139 ct 
976 -131 974 -122 974 -111 ct 1075 -111 l  p ef
1275 -52 m  1275 -43 1273 -36 1270 -29 ct 1266 -22 1261 -16 1255 -11 ct 1248 -7 1241 -3 1231 -1 ct 
1222 2 1211 3 1199 3 ct 1188 3 1179 2 1170 1 ct 1161 -1 1154 -4 1147 -8 ct 1140 -11 1135 -16 1131 -22 ct 
1126 -28 1123 -36 1121 -44 ct 1148 -50 l  1151 -40 1156 -32 1165 -28 ct 1173 -23 1184 -21 1199 -21 ct 
1206 -21 1212 -21 1217 -22 ct 1223 -23 1228 -25 1232 -27 ct 1236 -29 1239 -32 1241 -36 ct 
1243 -39 1245 -44 1245 -50 ct 1245 -55 1243 -60 1241 -63 ct 1238 -67 1234 -70 1230 -73 ct 
1225 -75 1219 -77 1212 -79 ct 1206 -81 1198 -83 1190 -85 ct 1183 -87 1175 -89 1168 -91 ct 
1161 -94 1154 -97 1148 -101 ct 1142 -105 1137 -110 1134 -116 ct 1130 -122 1128 -129 1128 -138 ct 
1128 -155 1134 -168 1146 -177 ct 1159 -186 1176 -190 1199 -190 ct 1220 -190 1236 -186 1248 -179 ct 
1261 -172 1268 -160 1271 -144 ct 1244 -141 l  1243 -146 1241 -150 1238 -153 ct 
1235 -156 1232 -159 1228 -161 ct 1224 -163 1220 -164 1215 -165 ct 1210 -166 1205 -167 1199 -167 ct 
1185 -167 1175 -164 1168 -160 ct 1162 -156 1158 -149 1158 -141 ct 1158 -136 1160 -132 1162 -128 ct 
1165 -125 1168 -122 1172 -120 ct 1177 -118 1182 -116 1188 -114 ct 1195 -113 1201 -111 1209 -109 ct 
1214 -108 1219 -106 1224 -105 ct 1229 -103 1234 -102 1239 -100 ct 1244 -98 1249 -95 1253 -93 ct 
1257 -90 1261 -87 1264 -83 ct 1267 -79 1270 -75 1272 -70 ct 1274 -65 1275 -59 1275 -52 ct 
p ef
1344 -87 m  1344 -77 1345 -68 1347 -60 ct 1349 -52 1352 -45 1356 -39 ct 1360 -33 1365 -28 1372 -25 ct 
1379 -22 1386 -20 1396 -20 ct 1409 -20 1420 -23 1428 -28 ct 1436 -34 1442 -41 1444 -49 ct 
1472 -41 l  1470 -36 1467 -31 1463 -26 ct 1460 -20 1455 -16 1449 -11 ct 1444 -7 1436 -4 1427 -1 ct 
1419 2 1408 3 1396 3 ct 1368 3 1347 -5 1333 -22 ct 1318 -38 1311 -62 1311 -95 ct 
1311 -112 1313 -127 1318 -139 ct 1322 -151 1328 -161 1335 -169 ct 1343 -176 1352 -182 1362 -185 ct 
1372 -188 1383 -190 1394 -190 ct 1410 -190 1423 -187 1434 -182 ct 1444 -177 1453 -170 1459 -162 ct 
1465 -153 1470 -142 1473 -130 ct 1475 -118 1477 -105 1477 -91 ct 1477 -87 l 
1344 -87 l  p
1445 -111 m  1443 -130 1438 -145 1430 -154 ct 1421 -163 1409 -167 1394 -167 ct 
1389 -167 1383 -166 1378 -165 ct 1372 -163 1367 -160 1362 -156 ct 1357 -152 1353 -146 1350 -139 ct 
1346 -131 1344 -122 1344 -111 ct 1445 -111 l  p ef
pom
pum
6651 13540 t
74 -259 m  74 -151 l  236 -151 l  236 -118 l  74 -118 l  74 0 l  35 0 l 
35 -291 l  241 -291 l  241 -259 l  74 -259 l  p ef
322 -104 m  322 -92 323 -82 326 -72 ct 328 -62 332 -53 337 -46 ct 342 -39 348 -34 356 -30 ct 
364 -26 373 -24 384 -24 ct 400 -24 413 -27 423 -34 ct 433 -40 439 -48 443 -58 ct 
475 -49 l  473 -43 470 -36 466 -30 ct 461 -24 456 -18 449 -13 ct 442 -8 433 -4 422 -1 ct 
412 2 399 4 384 4 ct 351 4 326 -6 309 -26 ct 292 -45 283 -75 283 -113 ct 283 -134 286 -152 291 -167 ct 
296 -181 303 -193 312 -202 ct 321 -211 332 -218 344 -222 ct 356 -226 369 -228 383 -228 ct 
402 -228 417 -225 430 -219 ct 443 -213 453 -204 460 -194 ct 468 -183 473 -170 477 -156 ct 
480 -141 481 -126 481 -109 ct 481 -104 l  322 -104 l  p
443 -133 m  441 -156 435 -173 425 -184 ct 415 -195 401 -200 382 -200 ct 376 -200 370 -199 363 -197 ct 
356 -195 350 -192 344 -187 ct 338 -182 333 -175 329 -166 ct 325 -157 323 -146 322 -133 ct 
443 -133 l  p ef
589 4 m  566 4 549 -2 538 -14 ct 527 -26 521 -42 521 -63 ct 521 -78 524 -90 529 -99 ct 
535 -109 542 -116 551 -122 ct 560 -127 571 -131 582 -133 ct 594 -135 605 -136 617 -136 ct 
668 -136 l  668 -148 l  668 -158 667 -166 665 -172 ct 663 -179 660 -184 656 -188 ct 
652 -192 647 -195 641 -197 ct 635 -199 628 -200 620 -200 ct 613 -200 606 -199 600 -198 ct 
595 -197 589 -195 585 -193 ct 581 -190 577 -186 575 -182 ct 572 -177 571 -171 570 -164 ct 
531 -168 l  532 -176 535 -185 539 -192 ct 543 -199 548 -206 555 -211 ct 562 -216 571 -221 582 -224 ct 
592 -227 605 -228 621 -228 ct 649 -228 670 -222 684 -209 ct 698 -196 705 -177 705 -153 ct 
705 -56 l  705 -45 707 -37 710 -31 ct 712 -26 718 -23 726 -23 ct 728 -23 730 -23 732 -23 ct 
734 -24 736 -24 738 -25 ct 738 -1 l  734 0 729 1 724 1 ct 720 2 715 2 710 2 ct 
703 2 697 1 691 -1 ct 686 -3 682 -5 679 -9 ct 676 -13 674 -18 672 -23 ct 670 -29 669 -36 669 -43 ct 
668 -43 l  664 -36 659 -29 655 -24 ct 650 -18 644 -13 638 -9 ct 632 -5 624 -2 616 1 ct 
608 3 599 4 589 4 ct p
597 -24 m  609 -24 619 -26 628 -30 ct 637 -35 644 -40 650 -47 ct 656 -54 660 -61 663 -69 ct 
666 -77 668 -84 668 -92 ct 668 -110 l  627 -110 l  618 -110 609 -109 601 -108 ct 
593 -107 586 -105 579 -101 ct 573 -98 568 -93 565 -87 ct 561 -80 559 -72 559 -62 ct 
559 -50 562 -41 569 -34 ct 576 -27 585 -24 597 -24 ct p ef
855 -2 m  850 0 844 1 838 2 ct 832 3 826 3 818 3 ct 788 3 773 -14 773 -48 ct 773 -197 l 
747 -197 l  747 -224 l  775 -224 l  786 -275 l  810 -275 l  810 -224 l 
852 -224 l  852 -197 l  810 -197 l  810 -56 l  810 -45 812 -37 816 -33 ct 
819 -29 825 -27 834 -27 ct 838 -27 841 -27 844 -27 ct 848 -28 851 -29 855 -29 ct 
855 -2 l  p ef
912 -224 m  912 -82 l  912 -71 913 -62 914 -55 ct 916 -47 918 -42 922 -37 ct 
926 -33 930 -29 936 -28 ct 942 -26 949 -25 958 -25 ct 967 -25 975 -26 982 -29 ct 
989 -33 995 -37 1000 -43 ct 1005 -49 1009 -56 1012 -65 ct 1014 -73 1016 -83 1016 -94 ct 
1016 -224 l  1053 -224 l  1053 -48 l  1053 -43 1053 -38 1053 -33 ct 1053 -28 1053 -23 1053 -18 ct 
1053 -14 1054 -10 1054 -7 ct 1054 -3 1054 -1 1054 0 ct 1019 0 l  1019 -1 1019 -3 1019 -6 ct 
1019 -9 1018 -12 1018 -16 ct 1018 -20 1018 -24 1018 -28 ct 1017 -32 1017 -36 1017 -38 ct 
1017 -38 l  1013 -32 1009 -26 1005 -21 ct 1001 -16 996 -11 990 -7 ct 985 -4 978 -1 971 1 ct 
963 3 955 4 945 4 ct 933 4 922 2 913 -1 ct 904 -4 897 -8 891 -15 ct 885 -21 881 -29 879 -39 ct 
876 -49 874 -61 874 -75 ct 874 -224 l  912 -224 l  p ef
1114 0 m  1114 -172 l  1114 -176 1114 -181 1114 -186 ct 1114 -191 1114 -196 1114 -200 ct 
1114 -205 1114 -209 1114 -213 ct 1113 -217 1113 -221 1113 -224 ct 1148 -224 l 
1148 -221 1149 -217 1149 -213 ct 1149 -209 1149 -205 1149 -200 ct 1150 -196 1150 -192 1150 -188 ct 
1150 -184 1150 -181 1150 -178 ct 1151 -178 l  1153 -187 1156 -194 1159 -200 ct 
1162 -207 1165 -212 1169 -216 ct 1173 -220 1178 -223 1184 -225 ct 1189 -227 1196 -228 1204 -228 ct 
1207 -228 1210 -228 1212 -227 ct 1215 -227 1217 -226 1219 -226 ct 1219 -192 l 
1216 -192 1213 -193 1210 -193 ct 1207 -194 1203 -194 1199 -194 ct 1190 -194 1183 -192 1177 -188 ct 
1171 -184 1166 -179 1163 -172 ct 1159 -165 1156 -157 1154 -148 ct 1152 -138 1152 -128 1152 -117 ct 
1152 0 l  1114 0 l  p ef
1274 -104 m  1274 -92 1275 -82 1278 -72 ct 1280 -62 1284 -53 1289 -46 ct 1294 -39 1300 -34 1308 -30 ct 
1316 -26 1325 -24 1336 -24 ct 1352 -24 1365 -27 1375 -34 ct 1385 -40 1391 -48 1395 -58 ct 
1427 -49 l  1425 -43 1422 -36 1418 -30 ct 1413 -24 1408 -18 1401 -13 ct 1394 -8 1385 -4 1374 -1 ct 
1364 2 1351 4 1336 4 ct 1303 4 1278 -6 1261 -26 ct 1244 -45 1235 -75 1235 -113 ct 
1235 -134 1238 -152 1243 -167 ct 1248 -181 1255 -193 1264 -202 ct 1273 -211 1284 -218 1296 -222 ct 
1308 -226 1321 -228 1335 -228 ct 1354 -228 1369 -225 1382 -219 ct 1395 -213 1405 -204 1412 -194 ct 
1420 -183 1425 -170 1429 -156 ct 1432 -141 1433 -126 1433 -109 ct 1433 -104 l 
1274 -104 l  p
1395 -133 m  1393 -156 1387 -173 1377 -184 ct 1367 -195 1353 -200 1334 -200 ct 
1328 -200 1322 -199 1315 -197 ct 1308 -195 1302 -192 1296 -187 ct 1290 -182 1285 -175 1281 -166 ct 
1277 -157 1275 -146 1274 -133 ct 1395 -133 l  p ef
1651 -62 m  1651 -51 1649 -42 1645 -34 ct 1641 -26 1635 -19 1627 -13 ct 1620 -8 1610 -3 1599 0 ct 
1588 3 1575 4 1561 4 ct 1548 4 1536 3 1526 1 ct 1515 -1 1506 -4 1498 -9 ct 1490 -13 1484 -19 1478 -26 ct 
1473 -33 1469 -42 1467 -53 ct 1500 -59 l  1503 -47 1509 -38 1519 -33 ct 1529 -27 1543 -24 1561 -24 ct 
1569 -24 1576 -25 1583 -26 ct 1589 -27 1595 -29 1600 -32 ct 1605 -34 1608 -38 1611 -42 ct 
1614 -47 1615 -52 1615 -59 ct 1615 -66 1613 -71 1610 -76 ct 1607 -80 1603 -84 1597 -87 ct 
1591 -89 1585 -92 1577 -94 ct 1569 -96 1560 -99 1550 -101 ct 1541 -104 1532 -106 1523 -109 ct 
1515 -112 1507 -116 1500 -120 ct 1492 -125 1487 -131 1482 -138 ct 1478 -145 1476 -154 1476 -165 ct 
1476 -185 1483 -200 1497 -211 ct 1512 -222 1533 -227 1561 -227 ct 1586 -227 1605 -223 1620 -214 ct 
1634 -205 1643 -192 1647 -172 ct 1614 -168 l  1613 -174 1610 -179 1607 -183 ct 
1604 -187 1600 -190 1595 -192 ct 1590 -195 1585 -196 1579 -197 ct 1573 -198 1567 -199 1561 -199 ct 
1544 -199 1532 -196 1524 -191 ct 1516 -186 1512 -179 1512 -168 ct 1512 -162 1513 -157 1516 -153 ct 
1519 -149 1523 -146 1529 -143 ct 1534 -141 1540 -138 1548 -136 ct 1555 -134 1563 -132 1572 -130 ct 
1578 -129 1584 -127 1590 -125 ct 1597 -123 1603 -121 1609 -119 ct 1614 -117 1620 -114 1625 -111 ct 
1630 -107 1635 -103 1639 -99 ct 1642 -94 1646 -89 1648 -83 ct 1650 -77 1651 -70 1651 -62 ct 
p ef
pom
pum
975 10122 t
90.0 r 74 -259 m  74 -151 l  236 -151 l  236 -118 l  74 -118 l  74 0 l  35 0 l 
35 -291 l  241 -291 l  241 -259 l  74 -259 l  p ef
284 -96 m  284 -129 l  387 -129 l  387 -96 l  284 -96 l  p ef
556 0 m  556 -142 l  556 -153 555 -162 554 -169 ct 552 -177 550 -182 547 -187 ct 
543 -191 539 -195 534 -196 ct 529 -198 522 -199 515 -199 ct 507 -199 500 -198 493 -195 ct 
487 -191 482 -187 477 -181 ct 473 -175 469 -168 467 -159 ct 465 -151 463 -141 463 -130 ct 
463 0 l  426 0 l  426 -176 l  426 -181 426 -186 426 -191 ct 426 -196 426 -201 426 -206 ct 
426 -210 426 -214 426 -217 ct 425 -221 425 -223 425 -224 ct 460 -224 l  460 -223 460 -221 461 -218 ct 
461 -215 461 -212 461 -208 ct 461 -204 462 -200 462 -196 ct 462 -192 462 -188 462 -186 ct 
462 -186 l  466 -192 469 -198 473 -203 ct 477 -208 482 -213 487 -217 ct 492 -220 498 -223 505 -225 ct 
511 -227 519 -228 528 -228 ct 545 -228 558 -225 568 -218 ct 578 -211 585 -200 588 -186 ct 
589 -186 l  592 -192 596 -198 600 -203 ct 604 -208 609 -213 615 -217 ct 620 -220 626 -223 633 -225 ct 
640 -227 648 -228 657 -228 ct 668 -228 678 -226 686 -223 ct 694 -220 701 -216 706 -209 ct 
711 -203 715 -195 718 -185 ct 720 -175 721 -163 721 -149 ct 721 0 l  685 0 l 
685 -142 l  685 -153 684 -162 683 -169 ct 681 -177 679 -182 676 -187 ct 672 -191 668 -195 663 -196 ct 
658 -198 651 -199 644 -199 ct 636 -199 629 -198 623 -195 ct 616 -192 611 -187 606 -182 ct 
602 -176 598 -169 596 -160 ct 594 -151 592 -141 592 -130 ct 592 0 l  556 0 l 
p ef
798 -104 m  798 -92 799 -82 802 -72 ct 804 -62 808 -53 813 -46 ct 818 -39 824 -34 832 -30 ct 
840 -26 849 -24 860 -24 ct 876 -24 889 -27 899 -34 ct 909 -40 915 -48 919 -58 ct 
951 -49 l  949 -43 946 -36 942 -30 ct 937 -24 932 -18 925 -13 ct 918 -8 909 -4 898 -1 ct 
888 2 875 4 860 4 ct 827 4 802 -6 785 -26 ct 768 -45 759 -75 759 -113 ct 759 -134 762 -152 767 -167 ct 
772 -181 779 -193 788 -202 ct 797 -211 808 -218 820 -222 ct 832 -226 845 -228 859 -228 ct 
878 -228 893 -225 906 -219 ct 919 -213 929 -204 936 -194 ct 944 -183 949 -170 953 -156 ct 
956 -141 957 -126 957 -109 ct 957 -104 l  798 -104 l  p
919 -133 m  917 -156 911 -173 901 -184 ct 891 -195 877 -200 858 -200 ct 852 -200 846 -199 839 -197 ct 
832 -195 826 -192 820 -187 ct 814 -182 809 -175 805 -166 ct 801 -157 799 -146 798 -133 ct 
919 -133 l  p ef
1065 4 m  1042 4 1025 -2 1014 -14 ct 1003 -26 997 -42 997 -63 ct 997 -78 1000 -90 1005 -99 ct 
1011 -109 1018 -116 1027 -122 ct 1036 -127 1047 -131 1058 -133 ct 1070 -135 1081 -136 1093 -136 ct 
1144 -136 l  1144 -148 l  1144 -158 1143 -166 1141 -172 ct 1139 -179 1136 -184 1132 -188 ct 
1128 -192 1123 -195 1117 -197 ct 1111 -199 1104 -200 1096 -200 ct 1089 -200 1082 -199 1076 -198 ct 
1071 -197 1065 -195 1061 -193 ct 1057 -190 1053 -186 1051 -182 ct 1048 -177 1047 -171 1046 -164 ct 
1007 -168 l  1008 -176 1011 -185 1015 -192 ct 1019 -199 1024 -206 1031 -211 ct 
1038 -216 1047 -221 1058 -224 ct 1068 -227 1081 -228 1097 -228 ct 1125 -228 1146 -222 1160 -209 ct 
1174 -196 1181 -177 1181 -153 ct 1181 -56 l  1181 -45 1183 -37 1186 -31 ct 1188 -26 1194 -23 1202 -23 ct 
1204 -23 1206 -23 1208 -23 ct 1210 -24 1212 -24 1214 -25 ct 1214 -1 l  1210 0 1205 1 1200 1 ct 
1196 2 1191 2 1186 2 ct 1179 2 1173 1 1167 -1 ct 1162 -3 1158 -5 1155 -9 ct 1152 -13 1150 -18 1148 -23 ct 
1146 -29 1145 -36 1145 -43 ct 1144 -43 l  1140 -36 1135 -29 1131 -24 ct 1126 -18 1120 -13 1114 -9 ct 
1108 -5 1100 -2 1092 1 ct 1084 3 1075 4 1065 4 ct p
1073 -24 m  1085 -24 1095 -26 1104 -30 ct 1113 -35 1120 -40 1126 -47 ct 1132 -54 1136 -61 1139 -69 ct 
1142 -77 1144 -84 1144 -92 ct 1144 -110 l  1103 -110 l  1094 -110 1085 -109 1077 -108 ct 
1069 -107 1062 -105 1055 -101 ct 1049 -98 1044 -93 1041 -87 ct 1037 -80 1035 -72 1035 -62 ct 
1035 -50 1038 -41 1045 -34 ct 1052 -27 1061 -24 1073 -24 ct p ef
1413 -62 m  1413 -51 1411 -42 1407 -34 ct 1403 -26 1397 -19 1389 -13 ct 1382 -8 1372 -3 1361 0 ct 
1350 3 1337 4 1323 4 ct 1310 4 1298 3 1288 1 ct 1277 -1 1268 -4 1260 -9 ct 1252 -13 1246 -19 1240 -26 ct 
1235 -33 1231 -42 1229 -53 ct 1262 -59 l  1265 -47 1271 -38 1281 -33 ct 1291 -27 1305 -24 1323 -24 ct 
1331 -24 1338 -25 1345 -26 ct 1351 -27 1357 -29 1362 -32 ct 1367 -34 1370 -38 1373 -42 ct 
1376 -47 1377 -52 1377 -59 ct 1377 -66 1375 -71 1372 -76 ct 1369 -80 1365 -84 1359 -87 ct 
1353 -89 1347 -92 1339 -94 ct 1331 -96 1322 -99 1312 -101 ct 1303 -104 1294 -106 1285 -109 ct 
1277 -112 1269 -116 1262 -120 ct 1254 -125 1249 -131 1244 -138 ct 1240 -145 1238 -154 1238 -165 ct 
1238 -185 1245 -200 1259 -211 ct 1274 -222 1295 -227 1323 -227 ct 1348 -227 1367 -223 1382 -214 ct 
1396 -205 1405 -192 1409 -172 ct 1376 -168 l  1375 -174 1372 -179 1369 -183 ct 
1366 -187 1362 -190 1357 -192 ct 1352 -195 1347 -196 1341 -197 ct 1335 -198 1329 -199 1323 -199 ct 
1306 -199 1294 -196 1286 -191 ct 1278 -186 1274 -179 1274 -168 ct 1274 -162 1275 -157 1278 -153 ct 
1281 -149 1285 -146 1291 -143 ct 1296 -141 1302 -138 1310 -136 ct 1317 -134 1325 -132 1334 -130 ct 
1340 -129 1346 -127 1352 -125 ct 1359 -123 1365 -121 1371 -119 ct 1376 -117 1382 -114 1387 -111 ct 
1392 -107 1397 -103 1401 -99 ct 1404 -94 1408 -89 1410 -83 ct 1412 -77 1413 -70 1413 -62 ct 
p ef
1494 -224 m  1494 -82 l  1494 -71 1495 -62 1496 -55 ct 1498 -47 1500 -42 1504 -37 ct 
1508 -33 1512 -29 1518 -28 ct 1524 -26 1531 -25 1540 -25 ct 1549 -25 1557 -26 1564 -29 ct 
1571 -33 1577 -37 1582 -43 ct 1587 -49 1591 -56 1594 -65 ct 1596 -73 1598 -83 1598 -94 ct 
1598 -224 l  1635 -224 l  1635 -48 l  1635 -43 1635 -38 1635 -33 ct 1635 -28 1635 -23 1635 -18 ct 
1635 -14 1636 -10 1636 -7 ct 1636 -3 1636 -1 1636 0 ct 1601 0 l  1601 -1 1601 -3 1601 -6 ct 
1601 -9 1600 -12 1600 -16 ct 1600 -20 1600 -24 1600 -28 ct 1599 -32 1599 -36 1599 -38 ct 
1599 -38 l  1595 -32 1591 -26 1587 -21 ct 1583 -16 1578 -11 1572 -7 ct 1567 -4 1560 -1 1553 1 ct 
1545 3 1537 4 1527 4 ct 1515 4 1504 2 1495 -1 ct 1486 -4 1479 -8 1473 -15 ct 1467 -21 1463 -29 1461 -39 ct 
1458 -49 1456 -61 1456 -75 ct 1456 -224 l  1494 -224 l  p ef
1696 0 m  1696 -172 l  1696 -176 1696 -181 1696 -186 ct 1696 -191 1696 -196 1696 -200 ct 
1696 -205 1696 -209 1696 -213 ct 1695 -217 1695 -221 1695 -224 ct 1730 -224 l 
1730 -221 1731 -217 1731 -213 ct 1731 -209 1731 -205 1731 -200 ct 1732 -196 1732 -192 1732 -188 ct 
1732 -184 1732 -181 1732 -178 ct 1733 -178 l  1735 -187 1738 -194 1741 -200 ct 
1744 -207 1747 -212 1751 -216 ct 1755 -220 1760 -223 1766 -225 ct 1771 -227 1778 -228 1786 -228 ct 
1789 -228 1792 -228 1794 -227 ct 1797 -227 1799 -226 1801 -226 ct 1801 -192 l 
1798 -192 1795 -193 1792 -193 ct 1789 -194 1785 -194 1781 -194 ct 1772 -194 1765 -192 1759 -188 ct 
1753 -184 1748 -179 1745 -172 ct 1741 -165 1738 -157 1736 -148 ct 1734 -138 1734 -128 1734 -117 ct 
1734 0 l  1696 0 l  p ef
1856 -104 m  1856 -92 1857 -82 1860 -72 ct 1862 -62 1866 -53 1871 -46 ct 1876 -39 1882 -34 1890 -30 ct 
1898 -26 1907 -24 1918 -24 ct 1934 -24 1947 -27 1957 -34 ct 1967 -40 1973 -48 1977 -58 ct 
2009 -49 l  2007 -43 2004 -36 2000 -30 ct 1995 -24 1990 -18 1983 -13 ct 1976 -8 1967 -4 1956 -1 ct 
1946 2 1933 4 1918 4 ct 1885 4 1860 -6 1843 -26 ct 1826 -45 1817 -75 1817 -113 ct 
1817 -134 1820 -152 1825 -167 ct 1830 -181 1837 -193 1846 -202 ct 1855 -211 1866 -218 1878 -222 ct 
1890 -226 1903 -228 1917 -228 ct 1936 -228 1951 -225 1964 -219 ct 1977 -213 1987 -204 1994 -194 ct 
2002 -183 2007 -170 2011 -156 ct 2014 -141 2015 -126 2015 -109 ct 2015 -104 l 
1856 -104 l  p
1977 -133 m  1975 -156 1969 -173 1959 -184 ct 1949 -195 1935 -200 1916 -200 ct 
1910 -200 1904 -199 1897 -197 ct 1890 -195 1884 -192 1878 -187 ct 1872 -182 1867 -175 1863 -166 ct 
1859 -157 1857 -146 1856 -133 ct 1977 -133 l  p ef
pom
0 9000 t 
pom
count op_count sub {pop} repeat countdictstack dict_count sub {end} repeat b4_inc_state restore
%%PageTrailer
%%Trailer
%%EOF
